examples/hello-rust/out.vcd
$date today $end
$timescale 1 ns $end
$scope module ila $end
$var integer 1 ! ila_clock $end
$var integer 32 " test_signal $end
$var integer 1 # bus__cyc $end
$var integer 1 $ bus__stb $end
$var integer 22 % bus__adr $end
$var integer 1 & bus__we $end
$var integer 32 ' bus__dat_r $end
$var integer 32 ( bus__dat_w $end
$var integer 1 ) bus__ack $end
$var integer 3 * bus__cti $end
$var integer 32 + dma_addr $end
$var integer 7 , w_level $end
$var integer 1 - w_rdy $end
$var integer 2 . bytecounter $end
$var integer 1 / consume_started $end
$var integer 32 0 last_word $end
$var integer 32 1 address $end
$var integer 1 2 register_space $end
$var integer 1 3 perform_write $end
$var integer 1 4 single_page $end
$var integer 1 5 start_transfer $end
$var integer 1 6 final_word $end
$var integer 16 7 read_data $end
$var integer 16 8 write_data $end
$var integer 1 9 idle $end
$var integer 1 : read_ready $end
$var integer 1 ; write_ready $end
$var integer 8 < fsm_state $end
$upscope $end
$enddefinitions $end
#0
$dumpvars
1!
b11011110101011011011111011101111 "
0#
0$
b0 %
0&
b1011101101011000 '
b0 (
0)
b0 *
b1011101101011000 +
b100111 ,
1-
b11 .
1/
b0 0
b10111011001000000 1
02
03
04
05
16
b0 7
b0 8
19
0:
0;
b0 <
$end
#8
0!
#16
1#
1$
1&
b11011110101011010000000000000000 (
13
1!
#24
0!
#33
b0 .
b0 1
15
1!
#41
0!
#49
b1 .
b1011101100110010 0
05
06
09
b1 <
#50
1!
#58
0!
#66
b10 <
1!
#74
0!
#83
1!
b10 .
b10111011 0
b11 <
#91
0!
#99
1!
#100
b100110 ,
b11 .
b0 0
b100 <
#108
0!
#116
1!
b110 <
#124
0!
#133
1!
b0 .
#141
0!
#149
b1 .
b1011101100110011 0
1!
#158
0!
#166
1!
#175
0!
#183
b10 .
b10111011 0
1!
#191
0!
#199
b100101 ,
b11 .
b0 0
#200
1!
#208
0!
#216
1!
#225
0!
#233
b0 .
1!
#241
0!
#249
b1 .
b1011101100110100 0
#250
1!
#258
0!
#266
1!
#275
0!
#283
b10 .
b10111011 0
1!
#291
0!
#299
b100100 ,
b11 .
b0 0
#300
1!
#308
0!
#316
1!
#325
0!
#333
b0 .
1;
b101 <
1!
#341
0!
#350
b1 .
b1011101100110101 0
16
b1101111010101101 8
1!
#358
0!
#366
1)
b0 8
0;
b1000 <
1!
#375
0!
#383
b1 %
b11011110101011010000000000000001 (
0)
b10 .
b10111011 0
19
b0 <
1!
#391
0!
#400
b100011 ,
b11 .
b0 0
b10 1
15
1!
#408
0!
#416
05
06
b1 8
09
b1 <
1!
#425
0!
#433
b0 .
b10 <
1!
#441
0!
#450
b1 .
b1011101100110110 0
b11 <
1!
#458
0!
#466
b100 <
1!
#475
0!
#483
b10 .
b10111011 0
b110 <
1!
#491
0!
#500
b100010 ,
b11 .
b0 0
1!
#508
0!
#516
1!
#525
0!
#533
1!
b0 .
#541
0!
#549
1!
#550
b1 .
b1011101100110111 0
#558
0!
#566
1!
#574
0!
#583
1!
b10 .
b10111011 0
#591
0!
#599
1!
#600
b100001 ,
b11 .
b0 0
#608
0!
#616
1!
#624
0!
#633
1!
b0 .
#641
0!
#649
1!
#650
b1 .
b1011101100111000 0
#658
0!
#666
1!
#674
0!
#683
1!
b10 .
b10111011 0
#691
0!
#699
1!
#700
b100000 ,
b11 .
b0 0
1;
b101 <
#708
0!
#716
1!
16
b1101111010101101 8
#724
0!
#733
1!
1)
b0 .
b1 8
0;
b1000 <
#741
0!
#749
1!
#750
b10 %
b11011110101011010000000000000010 (
0)
b1 .
b1011101100111001 0
19
b0 <
#758
0!
#766
1!
b100 1
15
#774
0!
#783
1!
b10 .
b10111011 0
05
06
b10 8
09
b1 <
#791
0!
#799
1!
#800
b11111 ,
b11 .
b0 0
b10 <
#808
0!
#816
1!
b11 <
#824
0!
#833
1!
b0 .
b100 <
#841
0!
#849
1!
#850
b1 .
b1011101100111010 0
b110 <
#858
0!
#866
1!
#874
0!
#883
1!
b10 .
b10111011 0
#891
0!
#899
1!
#900
b11110 ,
b11 .
b0 0
#908
0!
#916
1!
#924
0!
#933
1!
b0 .
#941
0!
#949
1!
#950
b1 .
b1011101100111011 0
#958
0!
#966
1!
#974
0!
#983
1!
b10 .
b10111011 0
#991
0!
#999
1!
#1000
b11101 ,
b11 .
b0 0
#1008
0!
#1016
1!
#1024
0!
#1033
1!
b0 .
#1041
0!
#1049
1!
#1050
b1 .
b1011101100111100 0
#1058
0!
#1066
1!
1;
b101 <
#1074
0!
#1083
1!
b10 .
b10111011 0
16
b1101111010101101 8
#1091
0!
#1099
1!
1)
b11100 ,
b11 .
b0 0
b10 8
0;
b1000 <
#1108
0!
#1116
1!
b11 %
b11011110101011010000000000000011 (
0)
19
b0 <
#1124
0!
#1133
1!
b0 .
b110 1
15
#1141
0!
#1149
1!
b1 .
b1011101100111101 0
05
06
b11 8
09
b1 <
#1158
0!
#1166
1!
b10 <
#1174
0!
#1183
b10 .
b10111011 0
b11 <
1!
#1191
0!
#1199
b11011 ,
b11 .
b0 0
b100 <
1!
#1208
0!
#1216
b110 <
1!
#1224
0!
#1233
b0 .
1!
#1241
0!
#1249
b1 .
b1011101100111110 0
1!
#1258
0!
#1266
1!
#1275
0!
#1283
b10 .
b10111011 0
1!
#1291
0!
#1299
b11010 ,
b11 .
b0 0
#1300
1!
#1308
0!
#1316
1!
#1325
0!
#1333
b0 .
1!
#1341
0!
#1349
b1 .
b1011101100111111 0
#1350
1!
#1358
0!
#1366
1!
#1375
0!
#1383
b10 .
b10111011 0
1!
#1391
0!
#1399
b11001 ,
b11 .
b0 0
#1400
1!
#1408
0!
#1416
1!
#1425
0!
#1433
b0 .
1;
b101 <
1!
#1441
0!
#1449
b1 .
b1011101101000000 0
16
b1101111010101101 8
#1450
1!
#1458
0!
#1466
1)
b11 8
0;
b1000 <
1!
#1475
0!
#1483
0#
0$
b1111111111111010111000 %
b1000000000000000111111100110000 (
0)
b10 .
b10111011 0
19
b0 <
1!
#1491
0!
#1499
1#
1$
b1011101101011000 %
0&
b0 (
b10 *
b11000 ,
b11 .
b0 0
03
#1500
1!
#1508
0!
#1516
b10111011010110000 1
15
1!
#1525
0!
#1533
b0 .
05
06
b0 8
09
b1 <
1!
#1541
0!
#1549
b1 .
b1011101101000001 0
b10 <
#1550
1!
#1558
0!
#1566
b11 <
1!
#1575
0!
#1583
b10 .
b10111011 0
b100 <
1!
#1591
0!
#1599
b10111 ,
b11 .
b0 0
b110 <
#1600
1!
#1608
0!
#1616
1!
#1625
0!
#1633
b0 .
1!
#1641
0!
#1649
b1 .
b1011101101000010 0
#1650
1!
#1658
0!
#1666
1!
#1675
0!
#1683
b10 .
b10111011 0
1!
#1691
0!
#1699
b10110 ,
b11 .
b0 0
#1700
1!
#1708
0!
#1716
1!
#1725
0!
#1733
b0 .
1!
#1741
0!
#1749
b1 .
b1011101101000011 0
#1750
1!
#1758
0!
#1766
1!
#1775
0!
#1783
b10 .
b10111011 0
1!
#1791
0!
#1799
b10101 ,
b11 .
b0 0
#1800
1!
#1808
0!
#1816
b111 <
1!
#1825
0!
#1833
b0 .
1!
#1841
0!
#1849
b1 .
b1011101101000100 0
#1850
1!
#1858
0!
#1866
1!
#1875
0!
#1883
b10 .
b10111011 0
1!
#1891
0!
#1899
b10100 ,
b11 .
b0 0
#1900
1!
#1908
0!
#1916
b1011101101011000 7
1:
1!
#1925
0!
#1933
b0 .
b0 7
1!
#1941
0!
#1949
1)
b1 .
b1011101101000101 0
b1011101101011001 7
#1950
1!
#1958
0!
#1966
b1011101101011001 %
b1011101101011001 '
0)
b1011101101011001 +
b0 7
1!
#1975
0!
#1983
1)
b10101 ,
b10 .
b10111011 0
b1011101101011010 7
1!
#1991
0!
#1999
b1011101101011010 %
b1011101101011010 '
0)
b1011101101011010 +
b10100 ,
b11 .
b0 0
b0 7
#2000
1!
#2008
0!
#2016
1)
b10101 ,
b1011101101011011 7
1!
#2025
0!
#2033
b1011101101011011 %
b1011101101011011 '
0)
b1011101101011011 +
b0 .
b0 7
1!
#2041
0!
#2049
1)
b10110 ,
b1 .
b1011101101000110 0
b1011101101011100 7
#2050
1!
#2058
0!
#2066
b1011101101011100 %
b1011101101011100 '
0)
b1011101101011100 +
b0 7
1!
#2075
0!
#2083
1)
b10111 ,
b10 .
b10111011 0
b1011101101011101 7
1!
#2091
0!
#2099
b1011101101011101 %
b1011101101011101 '
0)
b1011101101011101 +
b10110 ,
b11 .
b0 0
b0 7
#2100
1!
#2108
0!
#2116
1)
b10111 ,
b1011101101011110 7
1!
#2125
0!
#2133
b1011101101011110 %
b1011101101011110 '
0)
b1011101101011110 +
b0 .
b0 7
1!
#2141
0!
#2149
1)
b11000 ,
b1 .
b1011101101000111 0
b1011101101011111 7
#2150
1!
#2158
0!
#2166
b1011101101011111 %
b1011101101011111 '
0)
b1011101101011111 +
b0 7
1!
#2175
0!
#2183
1)
b11001 ,
b10 .
b10111011 0
b1011101101100000 7
1!
#2191
0!
#2199
b1011101101100000 %
b1011101101100000 '
0)
b1011101101100000 +
b11000 ,
b11 .
b0 0
b0 7
#2200
1!
#2208
0!
#2216
1)
b11001 ,
b1011101101100001 7
1!
#2225
0!
#2233
b1011101101100001 %
b1011101101100001 '
0)
b1011101101100001 +
b0 .
b0 7
1!
#2241
0!
#2249
1)
b11010 ,
b1 .
b1011101101001000 0
b1011101101100010 7
#2250
1!
#2258
0!
#2266
b1011101101100010 %
b1011101101100010 '
0)
b1011101101100010 +
b0 7
1!
#2275
0!
#2283
1)
b11011 ,
b10 .
b10111011 0
b1011101101100011 7
1!
#2291
0!
#2299
b1011101101100011 %
b1011101101100011 '
0)
b1011101101100011 +
b11010 ,
b11 .
b0 0
b0 7
#2300
1!
#2308
0!
#2316
1)
b11011 ,
b1011101101100100 7
1!
#2325
0!
#2333
b1011101101100100 %
b1011101101100100 '
0)
b1011101101100100 +
b0 .
b0 7
1!
#2341
0!
#2349
1)
b11100 ,
b1 .
b1011101101001001 0
b1011101101100101 7
#2350
1!
#2358
0!
#2366
b1011101101100101 %
b1011101101100101 '
0)
b1011101101100101 +
b0 7
1!
#2375
0!
#2383
1)
b11101 ,
b10 .
b10111011 0
b1011101101100110 7
1!
#2391
0!
#2399
b1011101101100110 %
b1011101101100110 '
0)
b1011101101100110 +
b11100 ,
b11 .
b0 0
b0 7
#2400
1!
#2408
0!
#2416
1)
b11101 ,
b1011101101100111 7
1!
#2425
0!
#2433
b1011101101100111 %
b1011101101100111 '
0)
b1011101101100111 +
b0 .
b0 7
1!
#2441
0!
#2449
1)
b11110 ,
b1 .
b1011101101001010 0
b1011101101101000 7
#2450
1!
#2458
0!
#2466
b1011101101101000 %
b1011101101101000 '
0)
b1011101101101000 +
b0 7
1!
#2475
0!
#2483
1)
b11111 ,
b10 .
b10111011 0
b1011101101101001 7
1!
#2491
0!
#2499
b1011101101101001 %
b1011101101101001 '
0)
b1011101101101001 +
b11110 ,
b11 .
b0 0
b0 7
#2500
1!
#2508
0!
#2516
1)
b11111 ,
b1011101101101010 7
1!
#2525
0!
#2533
b1011101101101010 %
b1011101101101010 '
0)
b1011101101101010 +
b0 .
b0 7
1!
#2541
0!
#2550
1)
b100000 ,
b1 .
b1011101101001011 0
b1011101101101011 7
1!
#2558
0!
#2566
b1011101101101011 %
b1011101101101011 '
0)
b1011101101101011 +
b0 7
1!
#2575
0!
#2583
1)
b100001 ,
b10 .
b10111011 0
b1011101101101100 7
1!
#2591
0!
#2600
b1011101101101100 %
b1011101101101100 '
0)
b1011101101101100 +
b100000 ,
b11 .
b0 0
b0 7
1!
#2608
0!
#2616
1)
b100001 ,
b1011101101101101 7
1!
#2625
0!
#2633
b1011101101101101 %
b1011101101101101 '
0)
b1011101101101101 +
b0 .
b0 7
1!
#2641
0!
#2650
1)
b100010 ,
b1 .
b1011101101001100 0
b1011101101101110 7
1!
#2658
0!
#2666
b1011101101101110 %
b1011101101101110 '
0)
b1011101101101110 +
b0 7
1!
#2675
0!
#2683
1)
b100011 ,
b10 .
b10111011 0
b1011101101101111 7
1!
#2691
0!
#2700
b1011101101101111 %
b1011101101101111 '
0)
b1011101101101111 +
b100010 ,
b11 .
b0 0
b0 7
1!
#2708
0!
#2716
1)
b100011 ,
b1011101101110000 7
1!
#2725
0!
#2733
b1011101101110000 %
b1011101101110000 '
0)
b1011101101110000 +
b0 .
b0 7
1!
#2741
0!
#2750
1)
b100100 ,
b1 .
b1011101101001101 0
b1011101101110001 7
1!
#2758
0!
#2766
b1011101101110001 %
b1011101101110001 '
0)
b1011101101110001 +
b0 7
1!
#2775
0!
#2783
1)
b100101 ,
b10 .
b10111011 0
b1011101101110010 7
1!
#2791
0!
#2800
b1011101101110010 %
b1011101101110010 '
0)
b1011101101110010 +
b100100 ,
b11 .
b0 0
b0 7
1!
#2808
0!
#2816
1)
b100101 ,
b1011101101110011 7
1!
#2825
0!
#2833
b1011101101110011 %
b1011101101110011 '
0)
b1011101101110011 +
b0 .
b0 7
1!
#2841
0!
#2850
1)
b100110 ,
b1 .
b1011101001001110 0
b1011101101110100 7
1!
#2858
0!
#2866
b1011101101110100 %
b1011101101110100 '
0)
b1011101101110100 +
b0 7
1!
#2875
0!
#2883
1)
b100111 ,
b10 .
b10111010 0
b1011101101110101 7
1!
#2891
0!
#2900
b1011101101110101 %
b1011101101110101 '
0)
b1011101101110101 +
b100110 ,
b11 .
b0 0
b0 7
1!
#2908
0!
#2916
1)
b100111 ,
b1011101101110110 7
1!
#2925
0!
#2933
b1011101101110110 %
b1011101101110110 '
0)
b1011101101110110 +
b0 .
b0 7
1!
#2941
0!
#2950
1)
b101000 ,
b1 .
b1011101101001111 0
b1011101101110111 7
1!
#2958
0!
#2966
b1011101101110111 %
b1011101101110111 '
0)
b1011101101110111 +
b0 7
1!
#2975
0!
#2983
1)
b101001 ,
b10 .
b10111011 0
b1011101101111000 7
1!
#2991
0!
#3000
b1011101101111000 %
b1011101101111000 '
0)
b1011101101111000 +
b101000 ,
b11 .
b0 0
b0 7
1!
#3008
0!
#3016
1)
b101001 ,
b1011101101111001 7
1!
#3025
0!
#3033
b1011101101111001 %
b1011101101111001 '
0)
b1011101101111001 +
b0 .
b0 7
1!
#3041
0!
#3050
1)
b101010 ,
b1 .
b1011101101010000 0
b1011101101111010 7
1!
#3058
0!
#3066
b1011101101111010 %
b1011101101111010 '
0)
b1011101101111010 +
b0 7
1!
#3075
0!
#3083
1)
b101011 ,
b10 .
b10111011 0
b1011101101111011 7
1!
#3091
0!
#3100
b1011101101111011 %
b1011101101111011 '
0)
b1011101101111011 +
b101010 ,
b11 .
b0 0
b0 7
1!
#3108
0!
#3116
1)
b101011 ,
b1011101101111100 7
1!
#3125
0!
#3133
b1011101101111100 %
b1011101101111100 '
0)
b1011101101111100 +
b0 .
b0 7
1!
#3141
0!
#3150
1)
b101100 ,
b1 .
b1011101101010001 0
b1011101101111101 7
1!
#3158
0!
#3166
b1011101101111101 %
b1011101101111101 '
0)
b1011101101111101 +
b0 7
1!
#3175
0!
#3183
1)
b101101 ,
b10 .
b10111011 0
b1011101101111110 7
1!
#3191
0!
#3200
b1011101101111110 %
b1011101101111110 '
0)
b1011101101111110 +
b101100 ,
b11 .
b0 0
b0 7
1!
#3208
0!
#3216
1)
b101101 ,
b1011101101111111 7
1!
#3225
0!
#3233
b1011101101111111 %
b1011101101111111 '
0)
b1011101101111111 +
b0 .
b0 7
1!
#3241
0!
#3250
1)
b101110 ,
b1 .
b1011101101010010 0
b1011101110000000 7
1!
#3258
0!
#3266
b1011101110000000 %
b1011101110000000 '
0)
b1011101110000000 +
b0 7
1!
#3275
0!
#3283
1)
b101111 ,
b10 .
b10111011 0
b1011101110000001 7
1!
#3291
0!
#3300
b1011101110000001 %
b1011101110000001 '
0)
b1011101110000001 +
b101110 ,
b11 .
b0 0
b0 7
1!
#3308
0!
#3316
1)
b101111 ,
b1011101110000010 7
1!
#3325
0!
#3333
b1011101110000010 %
b1011101110000010 '
0)
b1011101110000010 +
b0 .
b0 7
1!
#3341
0!
#3350
1)
b110000 ,
b1 .
b1011101101010011 0
b1011101110000011 7
1!
#3358
0!
#3366
b1011101110000011 %
b1011101110000011 '
0)
b1011101110000011 +
b0 7
1!
#3375
0!
#3383
1)
b110001 ,
b10 .
b10111011 0
b1011101110000100 7
1!
#3391
0!
#3400
b1011101110000100 %
b1011101110000100 '
0)
b1011101110000100 +
b110000 ,
b11 .
b0 0
b0 7
1!
#3408
0!
#3416
1)
b110001 ,
b1011101110000101 7
1!
#3425
0!
#3433
b1011101110000101 %
b1011101110000101 '
0)
b1011101110000101 +
b0 .
b0 7
1!
#3441
0!
#3450
1)
b110010 ,
b1 .
b1011101101010100 0
b1011101110000110 7
1!
#3458
0!
#3466
b1011101110000110 %
b1011101110000110 '
0)
b1011101110000110 +
b0 7
1!
#3475
0!
#3483
1)
b110011 ,
b10 .
b10111011 0
b1011101110000111 7
1!
#3491
0!
#3500
b1011101110000111 %
b1011101110000111 '
0)
b1011101110000111 +
b110010 ,
b11 .
b0 0
b0 7
1!
#3508
0!
#3516
1)
b110011 ,
b1011101110001000 7
1!
#3525
0!
#3533
b1011101110001000 %
b1011101110001000 '
0)
b1011101110001000 +
b0 .
b0 7
1!
#3541
0!
#3550
1)
b110100 ,
b1 .
b1011101101010101 0
b1011101110001001 7
1!
#3558
0!
#3566
b1011101110001001 %
b1011101110001001 '
0)
b1011101110001001 +
b0 7
1!
#3575
0!
#3583
1)
b110101 ,
b10 .
b10111011 0
b1011101110001010 7
1!
#3591
0!
#3600
b1011101110001010 %
b1011101110001010 '
0)
b1011101110001010 +
b110100 ,
b11 .
b0 0
b0 7
1!
#3608
0!
#3616
1)
b110101 ,
b1011101110001011 7
1!
#3625
0!
#3633
b1011101110001011 %
b1011101110001011 '
0)
b1011101110001011 +
b0 .
b0 7
1!
#3641
0!
#3650
1)
b110110 ,
b1 .
b1011101101010110 0
b1011101110001100 7
1!
#3658
0!
#3666
b1011101110001100 %
b1011101110001100 '
0)
b1011101110001100 +
b0 7
1!
#3675
0!
#3683
1)
b110111 ,
b10 .
b10111011 0
b1011101110001101 7
1!
#3691
0!
#3700
b1011101110001101 %
b1011101110001101 '
0)
b1011101110001101 +
b110110 ,
b11 .
b0 0
b0 7
1!
#3708
0!
#3716
1)
b110111 ,
b1011101110001110 7
1!
#3725
0!
#3733
b1011101110001110 %
b1011101110001110 '
0)
b1011101110001110 +
b0 .
b0 7
1!
#3741
0!
#3750
1)
b111000 ,
b1 .
b1011101101010111 0
b1011101110001111 7
1!
#3758
0!
#3766
b1011101110001111 %
b1011101110001111 '
0)
b1011101110001111 +
b0 7
1!
#3775
0!
#3783
1)
b111001 ,
b10 .
b10111011 0
b1011101110010000 7
1!
#3791
0!
#3800
b1011101110010000 %
b1011101110010000 '
0)
b1011101110010000 +
b111000 ,
b11 .
b0 0
b0 7
1!
#3808
0!
#3816
1)
b111001 ,
b1011101110010001 7
1!
#3825
0!
#3833
b1011101110010001 %
b1011101110010001 '
0)
b1011101110010001 +
b0 .
b0 7
1!
#3841
0!
#3850
1)
b111010 ,
b1 .
b1011101101011000 0
b1011101110010010 7
1!
#3858
0!
#3866
b1011101110010010 %
b1011101110010010 '
0)
b1011101110010010 +
b0 7
1!
#3875
0!
#3883
1)
b111011 ,
b10 .
b10111011 0
b1011101110010011 7
1!
#3891
0!
#3900
b1011101110010011 %
b1011101110010011 '
0)
b1011101110010011 +
b111010 ,
b11 .
b0 0
b0 7
1!
#3908
0!
#3916
1)
b111011 ,
b1011101110010100 7
1!
#3925
0!
#3933
b1011101110010100 %
b1011101110010100 '
0)
b1011101110010100 +
b0 .
b0 7
1!
#3941
0!
#3950
1)
b111100 ,
b1 .
b1011101101011001 0
b1011101110010101 7
1!
#3958
0!
#3966
b1011101110010101 %
b1011101110010101 '
0)
b1011101110010101 +
b0 7
1!
#3975
0!
#3983
1)
b111101 ,
b10 .
b10111011 0
b1011101110010110 7
1!
#3991
0!
#4000
b1011101110010110 %
b1011101110010110 '
0)
b1011101110010110 +
b111100 ,
b11 .
b0 0
b0 7
1!
#4008
0!
#4016
1!
1)
b111101 ,
b1011101110010111 7
#4025
0!
#4033
1!
b1011101110010111 %
b1011101110010111 '
0)
b1011101110010111 +
b0 .
b0 7
#4041
0!
#4050
1!
1)
b111110 ,
b1 .
b1011101101011010 0
b1011101110011000 7
#4058
0!
#4066
1!
b1011101110011000 %
b1011101110011000 '
0)
b1011101110011000 +
b0 7
#4075
0!
#4083
1!
1)
b111111 ,
b10 .
b10111011 0
b1011101110011001 7
#4091
0!
#4100
1!
b1011101110011001 %
b1011101110011001 '
0)
b1011101110011001 +
b111110 ,
b11 .
b0 0
b0 7
#4108
0!
#4116
1!
1)
b111111 ,
b1011101110011010 7
#4125
0!
#4133
1!
0#
0$
b0 %
b1011101110011010 '
0)
b0 *
b1011101110011010 +
0-
b0 .
b0 7
#4141
0!
#4150
1!
1#
1$
b100 %
1&
b11011110101011010000000000000100 (
1)
b1000000 ,
b1 .
b1011101101011011 0
13
16
b1011101110011011 7
#4158
0!
#4166
1!
b101 %
b11011110101011010000000000000101 (
0)
1-
b0 7
0:
b1000 <
#4175
0!
#4183
1!
b10 .
b10111011 0
19
b0 <
#4191
0!
#4200
1!
b111111 ,
b11 .
b0 0
b1010 1
15
#4208
0!
#4216
1!
05
06
b101 8
09
b1 <
#4225
0!
#4233
1!
b0 .
b10 <
#4241
0!
#4250
1!
b1 .
b1011101101011100 0
b11 <
#4258
0!
#4266
1!
b100 <
#4274
0!
#4283
1!
b10 .
b10111011 0
b110 <
#4291
0!
#4299
1!
#4300
b111110 ,
b11 .
b0 0
#4308
0!
#4316
1!
#4324
0!
#4333
1!
b0 .
#4341
0!
#4349
1!
#4350
b1 .
b1011101101011101 0
#4358
0!
#4366
1!
#4374
0!
#4383
1!
b10 .
b10111011 0
#4391
0!
#4399
1!
#4400
b111101 ,
b11 .
b0 0
#4408
0!
#4416
1!
#4424
0!
#4433
1!
b0 .
#4441
0!
#4449
1!
#4450
b1 .
b1011101101011110 0
#4458
0!
#4466
1!
#4474
0!
#4483
1!
b10 .
b10111011 0
#4491
0!
#4499
1!
#4500
b111100 ,
b11 .
b0 0
1;
b101 <
#4508
0!
#4516
1!
16
b1101111010101101 8
#4524
0!
#4533
1!
1)
b0 .
b101 8
0;
b1000 <
#4541
0!
#4549
1!
#4550
b110 %
b11011110101011010000000000000110 (
0)
b1 .
b1011101101011111 0
19
b0 <
#4558
0!
#4566
1!
b1100 1
15
#4574
0!
#4583
1!
b10 .
b10111011 0
05
06
b110 8
09
b1 <
#4591
0!
#4599
1!
#4600
b111011 ,
b11 .
b0 0
b10 <
#4608
0!
#4616
1!
b11 <
#4624
0!
#4633
1!
b0 .
b100 <
#4641
0!
#4649
1!
#4650
b1 .
b1011101101100000 0
b110 <
#4658
0!
#4666
1!
#4674
0!
#4683
1!
b10 .
b10111011 0
#4691
0!
#4699
1!
#4700
b111010 ,
b11 .
b0 0
#4708
0!
#4716
1!
#4724
0!
#4733
1!
b0 .
#4741
0!
#4749
1!
#4750
b1 .
b1011101101100001 0
#4758
0!
#4766
1!
#4774
0!
#4783
1!
b10 .
b10111011 0
#4791
0!
#4799
1!
#4800
b111001 ,
b11 .
b0 0
#4808
0!
#4816
1!
#4824
0!
#4833
1!
b0 .
#4841
0!
#4849
1!
#4850
b1 .
b1011101101100010 0
#4858
0!
#4866
1!
1;
b101 <
#4874
0!
#4883
1!
b10 .
b10111011 0
16
b1101111010101101 8
#4891
0!
#4899
1!
#4900
1)
b111000 ,
b11 .
b0 0
b110 8
0;
b1000 <
#4908
0!
#4916
1!
b111 %
b11011110101011010000000000000111 (
0)
19
b0 <
#4924
0!
#4933
1!
b0 .
b1110 1
15
#4941
0!
#4949
1!
#4950
b1 .
b1011101101100011 0
05
06
b111 8
09
b1 <
#4958
0!
#4966
1!
b10 <
#4974
0!
#4983
1!
b10 .
b10111011 0
b11 <
#4991
0!
#4999
1!
#5000
b110111 ,
b11 .
b0 0
b100 <
#5008
0!
#5016
1!
b110 <
#5024
0!
#5033
1!
b0 .
#5041
0!
#5049
1!
#5050
b1 .
b1011101101100100 0
#5058
0!
#5066
1!
#5074
0!
#5083
1!
b10 .
b10111011 0
#5091
0!
#5099
1!
#5100
b110110 ,
b11 .
b0 0
#5108
0!
#5116
1!
#5124
0!
#5133
1!
b0 .
#5141
0!
#5149
1!
#5150
b1 .
b1011101101100101 0
#5158
0!
#5166
1!
#5174
0!
#5183
1!
b10 .
b10111011 0
#5191
0!
#5199
1!
#5200
b110101 ,
b11 .
b0 0
#5208
0!
#5216
1!
#5224
0!
#5233
1!
b0 .
1;
b101 <
#5241
0!
#5249
1!
#5250
b1 .
b1011101101100110 0
16
b1101111010101101 8
#5258
0!
#5266
1!
1)
b111 8
0;
b1000 <
#5274
0!
#5283
1!
b1000 %
b11011110101011010000000000001000 (
0)
b10 .
b10111011 0
19
b0 <
#5291
0!
#5299
1!
#5300
b110100 ,
b11 .
b0 0
b10000 1
15
#5308
0!
#5316
1!
05
06
b1000 8
09
b1 <
#5324
0!
#5333
1!
b0 .
b10 <
#5341
0!
#5349
1!
#5350
b1 .
b1011101101100111 0
b11 <
#5358
0!
#5366
1!
b100 <
#5374
0!
#5383
1!
b10 .
b10111011 0
b110 <
#5391
0!
#5399
1!
#5400
b110011 ,
b11 .
b0 0
#5408
0!
#5416
1!
#5424
0!
#5433
1!
b0 .
#5441
0!
#5449
1!
#5450
b1 .
b1011101101101000 0
#5458
0!
#5466
1!
#5474
0!
#5483
1!
b10 .
b10111011 0
#5491
0!
#5499
1!
#5500
b110010 ,
b11 .
b0 0
#5508
0!
#5516
1!
#5524
0!
#5533
1!
b0 .
#5541
0!
#5549
1!
#5550
b1 .
b1011101101101001 0
#5558
0!
#5566
1!
#5574
0!
#5583
1!
b10 .
b10111011 0
#5591
0!
#5599
1!
#5600
b110001 ,
b11 .
b0 0
1;
b101 <
#5608
0!
#5616
1!
16
b1101111010101101 8
#5624
0!
#5633
1!
1)
b0 .
b1000 8
0;
b1000 <
#5641
0!
#5649
1!
#5650
0#
0$
b1111111011110 %
b1 (
0)
b1 .
b1011101101101010 0
19
b0 <
#5658
0!
#5666
1!
1$
b10110000 %
0&
b10 *
03
#5674
0!
#5683
1!
b10 .
b10111011 0
#5691
0!
#5699
1!
#5700
b10110001 %
b110000 ,
b11 .
b0 0
#5708
0!
#5716
1!
#5724
0!
#5733
1!
b10110010 %
b0 .
#5741
0!
#5749
1!
#5750
b1 .
b1011101101101011 0
#5758
0!
#5766
1!
b10110011 %
#5774
0!
#5783
1!
b10 .
b10111011 0
#5791
0!
#5799
1!
#5800
b10110100 %
b101111 ,
b11 .
b0 0
#5808
0!
#5816
1!
b10001010100010101000101010001010 (
#5824
0!
#5833
1!
b10110101 %
b0 .
#5841
0!
#5849
1!
#5850
b1 .
b1011101101101100 0
#5858
0!
#5866
1!
b10110110 %
#5874
0!
#5883
1!
b10 .
b10111011 0
#5891
0!
#5899
1!
#5900
b10110111 %
b111 *
b101110 ,
b11 .
b0 0
#5908
0!
#5916
1!
#5924
0!
#5933
1!
0$
b10110000 %
b10 *
b0 .
#5941
0!
#5949
1!
#5950
b1 .
b1011101101101101 0
#5958
0!
#5966
1!
#5974
0!
#5983
1!
b10 .
b10111011 0
#5991
0!
#5999
1!
#6000
b101101 ,
b11 .
b0 0
#6008
0!
#6016
1!
#6024
0!
#6033
1!
b0 .
#6041
0!
#6049
1!
#6050
b0 (
b1 .
b1011101101101110 0
#6058
0!
#6066
1!
b11011110101011010000000000001001 (
#6074
0!
#6083
1!
1#
1$
b1001 %
1&
b0 *
b10 .
b10111011 0
13
#6091
0!
#6099
1!
#6100
b101100 ,
b11 .
b0 0
b10010 1
15
#6108
0!
#6116
1!
05
06
b1001 8
09
b1 <
#6124
0!
#6133
1!
b0 .
b10 <
#6141
0!
#6149
1!
#6150
b1 .
b1011101101101111 0
b11 <
#6158
0!
#6166
1!
b100 <
#6174
0!
#6183
1!
b10 .
b10111011 0
b110 <
#6191
0!
#6199
1!
#6200
b101011 ,
b11 .
b0 0
#6208
0!
#6216
1!
#6224
0!
#6233
1!
b0 .
#6241
0!
#6249
1!
#6250
b1 .
b1011101101110000 0
#6258
0!
#6266
1!
#6274
0!
#6283
1!
b10 .
b10111011 0
#6291
0!
#6299
1!
#6300
b101010 ,
b11 .
b0 0
#6308
0!
#6316
1!
#6324
0!
#6333
1!
b0 .
#6341
0!
#6349
1!
#6350
b1 .
b1011101101110001 0
#6358
0!
#6366
1!
#6374
0!
#6383
1!
b10 .
b10111011 0
#6391
0!
#6399
1!
#6400
b101001 ,
b11 .
b0 0
1;
b101 <
#6408
0!
#6416
1!
16
b1101111010101101 8
#6424
0!
#6433
1!
1)
b0 .
b1001 8
0;
b1000 <
#6441
0!
#6449
1!
#6450
b1010 %
b11011110101011010000000000001010 (
0)
b1 .
b1011101101110010 0
19
b0 <
#6458
0!
#6466
1!
b10100 1
15
#6474
0!
#6483
1!
b10 .
b10111011 0
05
06
b1010 8
09
b1 <
#6491
0!
#6499
1!
#6500
b101000 ,
b11 .
b0 0
b10 <
#6508
0!
#6516
1!
b11 <
#6524
0!
#6533
1!
b0 .
b100 <
#6541
0!
#6549
1!
#6550
b1 .
b1011101101110011 0
b110 <
#6558
0!
#6566
1!
#6574
0!
#6583
1!
b10 .
b10111011 0
#6591
0!
#6599
1!
#6600
b100111 ,
b11 .
b0 0
#6608
0!
#6616
1!
#6624
0!
#6633
1!
b0 .
#6641
0!
#6649
1!
#6650
b1 .
b1011101101110100 0
#6658
0!
#6666
1!
#6674
0!
