applets/selftest/out.vcd
$date today $end
$timescale 1 ns $end
$scope module ila $end
$var integer 1 ! ila_clock $end
$var integer 32 " test_signal $end
$var integer 1 # bus__cyc $end
$var integer 1 $ bus__stb $end
$var integer 22 % bus__adr $end
$var integer 1 & bus__we $end
$var integer 32 ' bus__dat_r $end
$var integer 32 ( bus__dat_w $end
$var integer 1 ) bus__ack $end
$var integer 3 * bus__cti $end
$var integer 32 + address $end
$var integer 1 , register_space $end
$var integer 1 - perform_write $end
$var integer 1 . single_page $end
$var integer 1 / start_transfer $end
$var integer 1 0 final_word $end
$var integer 16 1 read_data $end
$var integer 16 2 write_data $end
$var integer 1 3 idle $end
$var integer 1 4 read_ready $end
$var integer 1 5 write_ready $end
$var integer 8 6 fsm_state $end
$upscope $end
$enddefinitions $end
#0
$dumpvars
1!
b11011110101011011011111011101111 "
1#
1$
b0 %
1&
b0 '
b0 (
0)
b0 *
b0 +
0,
1-
0.
0/
00
b0 1
b0 2
13
04
05
b0 6
$end
#8
0!
#16
1/
1!
#24
0!
#33
0/
03
b1 6
1!
#41
0!
#49
b10 6
#50
1!
#58
0!
#66
b11 6
1!
#74
0!
#83
1!
b100 6
#91
0!
#99
1!
#100
b110 6
#108
0!
#116
1!
#124
0!
#133
1!
#141
0!
#149
1!
#158
0!
#166
1!
#175
0!
#183
1!
#191
0!
#200
1!
#208
0!
#216
1!
#225
0!
#233
1!
#241
0!
#250
1!
#258
0!
#266
1!
#275
0!
#283
1!
#291
0!
#300
1!
#308
0!
#316
15
b101 6
1!
#325
0!
#333
10
1!
#341
0!
#350
1)
05
b1000 6
1!
#358
0!
#366
b1 %
b1 (
0)
13
b0 6
1!
#375
0!
#383
b10 +
1/
1!
#391
0!
#400
0/
00
b1 2
03
b1 6
1!
#408
0!
#416
b10 6
1!
#425
0!
#433
b11 6
1!
#441
0!
#450
b100 6
1!
#458
0!
#466
b110 6
1!
#475
0!
#483
1!
#491
0!
#500
1!
#508
0!
#516
1!
#525
0!
#533
1!
#541
0!
#549
1!
#558
0!
#566
1!
#574
0!
#583
1!
#591
0!
#599
1!
#608
0!
#616
1!
#624
0!
#633
1!
#641
0!
#649
1!
#658
0!
#666
1!
#674
0!
#683
1!
15
b101 6
#691
0!
#699
1!
#700
10
b0 2
#708
0!
#716
1!
1)
b1 2
05
b1000 6
#724
0!
#733
1!
b10 %
b10 (
0)
13
b0 6
#741
0!
#749
1!
#750
b100 +
1/
#758
0!
#766
1!
0/
00
b10 2
03
b1 6
#774
0!
#783
1!
b10 6
#791
0!
#799
1!
#800
b11 6
#808
0!
#816
1!
b100 6
#824
0!
#833
1!
b110 6
#841
0!
#849
1!
#858
0!
#866
1!
#874
0!
#883
1!
#891
0!
#899
1!
#908
0!
#916
1!
#924
0!
#933
1!
#941
0!
#949
1!
#958
0!
#966
1!
#974
0!
#983
1!
#991
0!
#999
1!
#1008
0!
#1016
1!
#1024
0!
#1033
1!
#1041
0!
#1049
1!
#1050
15
b101 6
#1058
0!
#1066
1!
10
b0 2
#1074
0!
#1083
1!
1)
b10 2
05
b1000 6
#1091
0!
#1099
1!
b11 %
b11 (
0)
13
b0 6
#1108
0!
#1116
1!
b110 +
1/
#1124
0!
#1133
1!
0/
00
b11 2
03
b1 6
#1141
0!
#1149
1!
b10 6
#1158
0!
#1166
1!
b11 6
#1174
0!
#1183
b100 6
1!
#1191
0!
#1199
b110 6
1!
#1208
0!
#1216
1!
#1224
0!
#1233
1!
#1241
0!
#1249
1!
#1258
0!
#1266
1!
#1275
0!
#1283
1!
#1291
0!
#1300
1!
#1308
0!
#1316
1!
#1325
0!
#1333
1!
#1341
0!
#1350
1!
#1358
0!
#1366
1!
#1375
0!
#1383
1!
#1391
0!
#1400
1!
#1408
0!
#1416
15
b101 6
1!
#1425
0!
#1433
10
b0 2
1!
#1441
0!
#1449
1)
b11 2
05
b1000 6
#1450
1!
#1458
0!
#1466
b100 %
b100 (
0)
13
b0 6
1!
#1475
0!
#1483
b1000 +
1/
1!
#1491
0!
#1499
0/
00
b100 2
03
b1 6
#1500
1!
#1508
0!
#1516
b10 6
1!
#1525
0!
#1533
b11 6
1!
#1541
0!
#1549
b100 6
#1550
1!
#1558
0!
#1566
b110 6
1!
#1575
0!
#1583
1!
#1591
0!
#1600
1!
#1608
0!
#1616
1!
#1625
0!
#1633
1!
#1641
0!
#1650
1!
#1658
0!
#1666
1!
#1675
0!
#1683
1!
#1691
0!
#1700
1!
#1708
0!
#1716
1!
#1725
0!
#1733
1!
#1741
0!
#1750
1!
#1758
0!
#1766
1!
#1775
0!
#1783
15
b101 6
1!
#1791
0!
#1799
10
b0 2
#1800
1!
#1808
0!
#1816
1)
b100 2
05
b1000 6
1!
#1825
0!
#1833
b101 %
b101 (
0)
13
b0 6
1!
#1841
0!
#1849
b1010 +
1/
#1850
1!
#1858
0!
#1866
0/
00
b101 2
03
b1 6
1!
#1875
0!
#1883
b10 6
1!
#1891
0!
#1899
b11 6
#1900
1!
#1908
0!
#1916
b100 6
1!
#1925
0!
#1933
b110 6
1!
#1941
0!
#1950
1!
#1958
0!
#1966
1!
#1975
0!
#1983
1!
#1991
0!
#2000
1!
#2008
0!
#2016
1!
#2025
0!
#2033
1!
#2041
0!
#2050
1!
#2058
0!
#2066
1!
#2075
0!
#2083
1!
#2091
0!
#2100
1!
#2108
0!
#2116
1!
#2125
0!
#2133
1!
#2141
0!
#2149
15
b101 6
#2150
1!
#2158
0!
#2166
10
b0 2
1!
#2175
0!
#2183
1)
b101 2
05
b1000 6
1!
#2191
0!
#2199
b110 %
b110 (
0)
13
b0 6
#2200
1!
#2208
0!
#2216
b1100 +
1/
1!
#2225
0!
#2233
0/
00
b110 2
03
b1 6
1!
#2241
0!
#2249
b10 6
#2250
1!
#2258
0!
#2266
b11 6
1!
#2275
0!
#2283
b100 6
1!
#2291
0!
#2299
b110 6
#2300
1!
#2308
0!
#2316
1!
#2325
0!
#2333
1!
#2341
0!
#2350
1!
#2358
0!
#2366
1!
#2375
0!
#2383
1!
#2391
0!
#2400
1!
#2408
0!
#2416
1!
#2425
0!
#2433
1!
#2441
0!
#2450
1!
#2458
0!
#2466
1!
#2475
0!
#2483
1!
#2491
0!
#2500
1!
#2508
0!
#2516
15
b101 6
1!
#2525
0!
#2533
10
b0 2
1!
#2541
0!
#2550
1)
b110 2
05
b1000 6
1!
#2558
0!
#2566
b111 %
b111 (
0)
13
b0 6
1!
#2575
0!
#2583
b1110 +
1/
1!
#2591
0!
#2600
0/
00
b111 2
03
b1 6
1!
#2608
0!
#2616
b10 6
1!
#2625
0!
#2633
b11 6
1!
#2641
0!
#2650
b100 6
1!
#2658
0!
#2666
b110 6
1!
#2675
0!
#2683
1!
#2691
0!
#2700
1!
#2708
0!
#2716
1!
#2725
0!
#2733
1!
#2741
0!
#2750
1!
#2758
0!
#2766
1!
#2775
0!
#2783
1!
#2791
0!
#2800
1!
#2808
0!
#2816
1!
#2825
0!
#2833
1!
#2841
0!
#2850
1!
#2858
0!
#2866
1!
#2875
0!
#2883
15
b101 6
1!
#2891
0!
#2900
10
b0 2
1!
#2908
0!
#2916
1)
b111 2
05
b1000 6
1!
#2925
0!
#2933
b1000 %
b1000 (
0)
13
b0 6
1!
#2941
0!
#2950
b10000 +
1/
1!
#2958
0!
#2966
0/
00
b1000 2
03
b1 6
1!
#2975
0!
#2983
b10 6
1!
#2991
0!
#3000
b11 6
1!
#3008
0!
#3016
b100 6
1!
#3025
0!
#3033
b110 6
1!
#3041
0!
#3050
1!
#3058
0!
#3066
1!
#3075
0!
#3083
1!
#3091
0!
#3100
1!
#3108
0!
#3116
1!
#3125
0!
#3133
1!
#3141
0!
#3150
1!
#3158
0!
#3166
1!
#3175
0!
#3183
1!
#3191
0!
#3200
1!
#3208
0!
#3216
1!
#3225
0!
#3233
1!
#3241
0!
#3250
15
b101 6
1!
#3258
0!
#3266
10
b0 2
1!
#3275
0!
#3283
1)
b1000 2
05
b1000 6
1!
#3291
0!
#3300
b1001 %
b1001 (
0)
13
b0 6
1!
#3308
0!
#3316
b10010 +
1/
1!
#3325
0!
#3333
0/
00
b1001 2
03
b1 6
1!
#3341
0!
#3350
b10 6
1!
#3358
0!
#3366
b11 6
1!
#3375
0!
#3383
b100 6
1!
#3391
0!
#3400
b110 6
1!
#3408
0!
#3416
1!
#3425
0!
#3433
1!
#3441
0!
#3450
1!
#3458
0!
#3466
1!
#3475
0!
#3483
1!
#3491
0!
#3500
1!
#3508
0!
#3516
1!
#3525
0!
#3533
1!
#3541
0!
#3550
1!
#3558
0!
#3566
1!
#3575
0!
#3583
1!
#3591
0!
#3600
1!
#3608
0!
#3616
15
b101 6
1!
#3625
0!
#3633
10
b0 2
1!
#3641
0!
#3650
1)
b1001 2
05
b1000 6
1!
#3658
0!
#3666
b1010 %
b1010 (
0)
13
b0 6
1!
#3675
0!
#3683
b10100 +
1/
1!
#3691
0!
#3700
0/
00
b1010 2
03
b1 6
1!
#3708
0!
#3716
b10 6
1!
#3725
0!
#3733
b11 6
1!
#3741
0!
#3750
b100 6
1!
#3758
0!
#3766
b110 6
1!
#3775
0!
#3783
1!
#3791
0!
#3800
1!
#3808
0!
#3816
1!
#3825
0!
#3833
1!
#3841
0!
#3850
1!
#3858
0!
#3866
1!
#3875
0!
#3883
1!
#3891
0!
#3900
1!
#3908
0!
#3916
1!
#3925
0!
#3933
1!
#3941
0!
#3950
1!
#3958
0!
#3966
1!
#3975
0!
#3983
15
b101 6
1!
#3991
0!
#4000
10
b0 2
1!
#4008
0!
#4016
1!
1)
b1010 2
05
b1000 6
#4025
0!
#4033
1!
b1011 %
b1011 (
0)
13
b0 6
#4041
0!
#4050
1!
b10110 +
1/
#4058
0!
#4066
1!
0/
00
b1011 2
03
b1 6
#4075
0!
#4083
1!
b10 6
#4091
0!
#4100
1!
b11 6
#4108
0!
#4116
1!
b100 6
#4125
0!
#4133
1!
b110 6
#4141
0!
#4150
1!
#4158
0!
#4166
1!
#4175
0!
#4183
1!
#4191
0!
#4200
1!
#4208
0!
#4216
1!
#4225
0!
#4233
1!
#4241
0!
#4250
1!
#4258
0!
#4266
1!
#4274
0!
#4283
1!
#4291
0!
#4299
1!
#4308
0!
#4316
1!
#4324
0!
#4333
1!
#4341
0!
#4349
1!
#4350
15
b101 6
#4358
0!
#4366
1!
10
b0 2
#4374
0!
#4383
1!
1)
b1011 2
05
b1000 6
#4391
0!
#4399
1!
#4400
b1100 %
b1100 (
0)
13
b0 6
#4408
0!
#4416
1!
b11000 +
1/
#4424
0!
#4433
1!
0/
00
b1100 2
03
b1 6
#4441
0!
#4449
1!
#4450
b10 6
#4458
0!
#4466
1!
b11 6
#4474
0!
#4483
1!
b100 6
#4491
0!
#4499
1!
#4500
b110 6
#4508
0!
#4516
1!
#4524
0!
#4533
1!
#4541
0!
#4549
1!
#4558
0!
#4566
1!
#4574
0!
#4583
1!
#4591
0!
#4599
1!
#4608
0!
#4616
1!
#4624
0!
#4633
1!
#4641
0!
#4649
1!
#4658
0!
#4666
1!
#4674
0!
#4683
1!
#4691
0!
#4699
1!
#4708
0!
#4716
1!
15
b101 6
#4724
0!
#4733
1!
10
b0 2
#4741
0!
#4749
1!
#4750
1)
b1100 2
05
b1000 6
#4758
0!
#4766
1!
b1101 %
b1101 (
0)
13
b0 6
#4774
0!
#4783
1!
b11010 +
1/
#4791
0!
#4799
1!
#4800
0/
00
b1101 2
03
b1 6
#4808
0!
#4816
1!
b10 6
#4824
0!
#4833
1!
b11 6
#4841
0!
#4849
1!
#4850
b100 6
#4858
0!
#4866
1!
b110 6
#4874
0!
#4883
1!
#4891
0!
#4899
1!
#4908
0!
#4916
1!
#4924
0!
#4933
1!
#4941
0!
#4949
1!
#4958
0!
#4966
1!
#4974
0!
#4983
1!
#4991
0!
#4999
1!
#5008
0!
#5016
1!
#5024
0!
#5033
1!
#5041
0!
#5049
1!
#5058
0!
#5066
1!
#5074
0!
#5083
1!
15
b101 6
#5091
0!
#5099
1!
#5100
10
b0 2
#5108
0!
#5116
1!
1)
b1101 2
05
b1000 6
#5124
0!
#5133
1!
b1110 %
b1110 (
0)
13
b0 6
#5141
0!
#5149
1!
#5150
b11100 +
1/
#5158
0!
#5166
1!
0/
00
b1110 2
03
b1 6
#5174
0!
#5183
1!
b10 6
#5191
0!
#5199
1!
#5200
b11 6
#5208
0!
#5216
1!
b100 6
#5224
0!
#5233
1!
b110 6
#5241
0!
#5249
1!
#5258
0!
#5266
1!
#5274
0!
#5283
1!
#5291
0!
#5299
1!
#5308
0!
#5316
1!
#5324
0!
#5333
1!
#5341
0!
#5349
1!
#5358
0!
#5366
1!
#5374
0!
#5383
1!
#5391
0!
#5399
1!
#5408
0!
#5416
1!
#5424
0!
#5433
1!
#5441
0!
#5449
1!
#5450
15
b101 6
#5458
0!
#5466
1!
10
b0 2
#5474
0!
#5483
1!
1)
b1110 2
05
b1000 6
#5491
0!
#5499
1!
#5500
b1111 %
b1111 (
0)
13
b0 6
#5508
0!
#5516
1!
b11110 +
1/
#5524
0!
#5533
1!
0/
00
b1111 2
03
b1 6
#5541
0!
#5549
1!
#5550
b10 6
#5558
0!
#5566
1!
b11 6
#5574
0!
#5583
1!
b100 6
#5591
0!
#5599
1!
#5600
b110 6
#5608
0!
#5616
1!
#5624
0!
#5633
1!
#5641
0!
#5649
1!
#5658
0!
#5666
1!
#5674
0!
#5683
1!
#5691
0!
#5699
1!
#5708
0!
#5716
1!
#5724
0!
#5733
1!
#5741
0!
#5749
1!
#5758
0!
#5766
1!
#5774
0!
#5783
1!
#5791
0!
#5799
1!
#5808
0!
#5816
1!
15
b101 6
#5824
0!
#5833
1!
10
b0 2
#5841
0!
#5849
1!
#5850
1)
b1111 2
05
b1000 6
#5858
0!
#5866
1!
b0 %
0&
b0 (
0)
b10 *
0-
13
b0 6
#5874
0!
#5883
1!
b0 +
1/
#5891
0!
#5899
1!
#5900
0/
00
b0 2
03
b1 6
#5908
0!
#5916
1!
b10 6
#5924
0!
#5933
1!
b11 6
#5941
0!
#5949
1!
#5950
b100 6
#5958
0!
#5966
1!
b110 6
#5974
0!
#5983
1!
#5991
0!
#5999
1!
#6008
0!
#6016
1!
#6024
0!
#6033
1!
#6041
0!
#6049
1!
#6058
0!
#6066
1!
#6074
0!
#6083
1!
#6091
0!
#6099
1!
#6108
0!
#6116
1!
#6124
0!
#6133
1!
#6141
0!
#6149
1!
#6158
0!
#6166
1!
#6174
0!
#6183
1!
b111 6
#6191
0!
#6199
1!
#6208
0!
#6216
1!
#6224
0!
#6233
1!
#6241
0!
#6249
1!
#6258
0!
#6266
1!
#6274
0!
#6283
1!
14
#6291
0!
#6299
1!
#6308
0!
#6316
1!
1)
b1 1
#6324
0!
#6333
1!
b1 %
b1 '
0)
b0 1
#6341
0!
#6349
1!
#6350
1)
b10 1
#6358
0!
#6366
1!
b10 %
b10 '
0)
b0 1
#6374
0!
#6383
1!
1)
b11 1
#6391
0!
#6399
1!
#6400
b11 %
b11 '
0)
b0 1
#6408
0!
#6416
1!
1)
b100 1
#6424
0!
#6433
1!
b100 %
b100 '
0)
b0 1
#6441
0!
#6449
1!
#6450
1)
b101 1
#6458
0!
#6466
1!
b101 %
b101 '
0)
b0 1
#6474
0!
#6483
1!
1)
b110 1
#6491
0!
#6499
1!
#6500
b110 %
b110 '
0)
b0 1
#6508
0!
#6516
1!
1)
b111 1
#6524
0!
#6533
1!
b111 %
b111 '
0)
b111 *
b0 1
#6541
0!
#6549
1!
#6550
1)
10
b1000 1
#6558
0!
#6566
1!
0#
0$
b0 %
0)
b0 *
b0 1
04
b1000 6
#6574
0!
#6583
1!
1$
b1011000 %
b10 *
13
b0 6
#6591
0!
#6599
1!
#6608
0!
#6616
1!
b1011001 %
#6624
0!
#6633
1!
b1011010 %
#6641
0!
#6649
1!
#6650
b1011011 %
#6658
0!
#6666
1!
b1011100 %
#6674
0!
#6683
1!
b1011101 %
#6691
0!
#6699
1!
#6700
b1011110 %
#6708
0!
#6716
1!
b1011111 %
b111 *
#6724
0!
#6733
1!
0$
b1011000 %
b10 *
#6741
0!
#6749
1!
#6758
0!
#6766
1!
#6774
0!
#6783
1!
#6791
0!
#6799
1!
#6808
0!
#6816
1!
#6824
0!
#6833
1!
#6841
0!
#6849
1!
#6858
0!
#6866
1!
#6874
0!
#6883
1!
b10000000000000001000000 (
#6891
0!
#6899
1!
#6900
b100000001000000010000000100000 (
#6908
0!
#6916
1!
b0 (
#6924
0!
#6933
1!
#6941
0!
#6949
1!
#6950
b10000000000000001000000 (
#6958
0!
#6966
1!
b100000001000000010000000100000 (
#6974
0!
#6983
1!
b0 (
#6991
0!
#6999
1!
#7008
0!
#7016
1!
b10000000000000001000000 (
#7024
0!
#7033
1!
b100000001000000010000000100000 (
#7041
0!
#7049
1!
#7050
b0 (
#7058
0!
#7066
1!
#7074
0!
#7083
1!
b10000000000000001000000 (
#7091
0!
#7099
1!
#7100
b100000001000000010000000100000 (
#7108
0!
#7116
1!
b0 (
#7124
0!
#7133
1!
#7141
0!
#7149
1!
#7150
b10000000000000001000000 (
#7158
0!
#7166
1!
b100000001000000010000000100000 (
#7174
0!
#7183
1!
b0 (
#7191
0!
#7199
1!
#7208
0!
#7216
1!
b10000000000000001000000 (
#7224
0!
#7233
1!
b100000001000000010000000100000 (
#7241
0!
#7249
1!
#7250
b0 (
#7258
0!
#7266
1!
#7274
0!
#7283
1!
b10000000000000001000000 (
#7291
0!
#7299
1!
#7300
b100000001000000010000000100000 (
#7308
0!
#7316
1!
b0 (
#7324
0!
#7333
1!
#7341
0!
#7349
1!
#7350
b10000000000000001000000 (
#7358
0!
#7366
1!
b100000001000000010000000100000 (
#7374
0!
#7383
1!
b0 (
#7391
0!
#7399
1!
#7400
1#
1$
b1000 %
#7408
0!
#7416
1!
b10000 +
1/
#7424
0!
#7433
1!
0/
00
03
b1 6
#7441
0!
#7449
1!
#7450
b10 6
#7458
0!
#7466
1!
b11 6
#7474
0!
#7483
1!
b100 6
#7491
0!
#7499
1!
#7500
b110 6
#7508
0!
#7516
1!
#7524
0!
#7533
1!
#7541
0!
#7549
1!
#7558
0!
#7566
1!
#7574
0!
#7583
1!
#7591
0!
#7599
1!
#7608
0!
#7616
1!
#7624
0!
#7633
1!
#7641
0!
#7649
1!
#7658
0!
#7666
1!
#7674
0!
#7683
1!
#7691
0!
#7699
1!
#7708
0!
#7716
1!
b111 6
#7724
0!
#7733
1!
#7741
0!
#7749
1!
#7758
0!
#7766
1!
#7774
0!
#7783
1!
#7791
0!
#7799
1!
#7808
0!
#7816
1!
b1000 1
14
#7824
0!
#7833
1!
b1000 '
b0 1
#7841
0!
#7849
1!
#7850
1)
b1001 1
#7858
0!
#7866
1!
b1001 %
b1001 '
0)
b0 1
#7874
0!
#7883
1!
1)
b1010 1
#7891
0!
#7899
1!
#7900
b1010 %
b1010 '
0)
b0 1
#7908
0!
#7916
1!
1)
b1011 1
#7924
0!
#7933
1!
b1011 %
b1011 '
0)
b0 1
#7941
0!
#7949
1!
#7950
1)
b1100 1
#7958
0!
#7966
1!
b1100 %
b1100 '
0)
b0 1
#7974
0!
#7983
1!
1)
b1101 1
#7991
0!
#7999
1!
#8000
b1101 %
b1101 '
0)
b0 1
#8008
0!
#8016
1!
1)
b1110 1
#8024
0!
#8033
1!
b1110 %
b1110 '
0)
b0 1
#8041
0!
#8049
1!
#8050
1)
b1111 1
#8058
0!
#8066
1!
b1111 %
b1111 '
0)
b111 *
b0 1
#8074
0!
#8083
1!
1)
10
b10000 1
#8091
0!
#8099
1!
#8100
0#
0$
b1000 %
0)
b0 *
b0 1
04
b1000 6
#8108
0!
#8116
1!
13
b0 6
#8124
0!
#8133
1!
#8141
0!
#8149
1!
#8158
0!
#8166
1!
#8174
0!
#8183
1!
b1001 %
#8191
0!
#8199
1!
#8200
b1111111111111111111001 %
1&
b10000000000000001000000 (
1-
#8208
0!
#8216
1!
b1010110111000000000000 %
b100000001000000010000000100000 (
#8224
0!
#8233
1!
b1001 %
0&
b0 (
0-
#8241
0!
#8249
1!
#8250
b1010 %
#8258
0!
#8266
1!
b1111111111111111111010 %
1&
b10000000000000001000000 (
1-
#8274
0!
#8283
1!
b1010110111000000000000 %
b100000001000000010000000100000 (
#8291
0!
#8299
1!
#8300
b1010 %
0&
b0 (
0-
#8308
0!
#8316
1!
b1011 %
#8324
0!
#8333
1!
b1111111111111111111011 %
1&
b10000000000000001000000 (
1-
#8341
0!
#8349
1!
#8350
b1010110111000000000000 %
b100000001000000010000000100000 (
#8358
0!
#8366
1!
b1011 %
0&
b0 (
0-
#8374
0!
#8383
1!
b1100 %
#8391
0!
#8399
1!
#8400
b1111111111111111111100 %
1&
b10000000000000001000000 (
1-
#8408
0!
#8416
1!
b1010110111000000000000 %
b100000001000000010000000100000 (
#8424
0!
#8433
1!
b1100 %
0&
b0 (
0-
#8441
0!
#8449
1!
#8450
b1101 %
#8458
0!
#8466
1!
b1111111111111111111101 %
1&
b10000000000000001000000 (
1-
#8474
0!
#8483
1!
b1010110111000000000000 %
b100000001000000010000000100000 (
#8491
0!
#8499
1!
#8500
b1101 %
0&
b0 (
0-
#8508
0!
#8516
1!
b1110 %
#8524
0!
#8533
1!
b1111111111111111111110 %
1&
b10000000000000001000000 (
1-
#8541
0!
#8549
1!
b1010110111000000000000 %
b100000001000000010000000100000 (
#8558
0!
#8566
1!
b1110 %
0&
b0 (
0-
#8574
0!
#8583
1!
b1111 %
#8591
0!
#8599
1!
b1111111111111111111111 %
1&
b10000000000000001000000 (
1-
#8608
0!
#8616
1!
b1010110111000000000000 %
b100000001000000010000000100000 (
#8624
0!
#8633
1!
b1111 %
0&
b0 (
0-
#8641
0!
#8649
1!
b10000 %
#8658
0!
#8666
1!
b0 %
1&
b10000000000000001000000 (
1-
#8674
0!
#8683
1!
b1010110111000000000000 %
b100000001000000010000000100000 (
#8691
0!
#8699
1!
b10000 %
0&
b0 (
0-
#8708
0!
#8716
1!
b10001 %
#8724
0!
#8733
1!
b1010110111000000000000 %
1&
b100000001000000010000000100000 (
1-
#8741
0!
#8749
1!
b0 %
b0 (
#8758
0!
#8766
1!
b1010110110111110111011 %
0&
0-
#8774
0!
#8783
1!
1$
b1100000 %
b10 *
#8791
0!
#8799
1!
b11011110101011011011111011101111 (
#8808
0!
#8816
1!
b1100001 %
#8824
0!
#8833
1!
b1100010 %
#8841
0!
#8849
1!
b1100011 %
#8858
0!
#8866
1!
b1100100 %
#8874
0!
#8883
1!
b1100101 %
#8891
0!
#8899
1!
b1100110 %
#8908
0!
#8916
1!
b1100111 %
b111 *
#8924
0!
#8933
1!
0$
b1100000 %
b10 *
#8941
0!
#8949
1!
1#
1$
b0 %
1&
b0 *
1-
#8958
0!
#8966
1!
b0 +
1/
#8974
0!
#8983
1!
0/
00
b1011111011101111 2
03
b1 6
#8991
0!
#8999
1!
b10 6
#9008
0!
#9016
1!
b11 6
#9024
0!
#9033
1!
b100 6
#9041
0!
#9049
1!
b110 6
#9058
0!
#9066
1!
#9074
0!
#9083
1!
#9091
0!
#9099
1!
#9108
0!
#9116
1!
#9124
0!
#9133
1!
#9141
0!
#9149
1!
#9158
0!
#9166
1!
#9174
0!
#9183
1!
#9191
0!
#9199
1!
#9208
0!
#9216
1!
#9224
0!
#9233
1!
#9241
0!
#9249
1!
#9258
0!
#9266
1!
15
b101 6
#9274
0!
#9283
1!
10
b1101111010101101 2
#9291
0!
#9299
1!
1)
b1011111011101111 2
05
b1000 6
#9308
0!
#9316
1!
b1 %
0)
13
b0 6
#9324
0!
#9333
1!
b10 +
1/
#9341
0!
#9349
1!
0/
00
03
b1 6
#9358
0!
#9366
1!
b10 6
#9374
0!
#9383
1!
b11 6
#9391
0!
#9399
1!
b100 6
#9408
0!
#9416
1!
b110 6
#9424
0!
#9433
1!
#9441
0!
#9449
1!
#9458
0!
#9466
1!
#9474
0!
#9483
1!
#9491
0!
#9499
1!
#9508
0!
#9516
1!
#9524
0!
#9533
1!
#9541
0!
#9549
1!
#9558
0!
#9566
1!
#9574
0!
#9583
1!
#9591
0!
#9599
1!
#9608
0!
#9616
1!
#9624
0!
#9633
1!
15
b101 6
#9641
0!
#9649
1!
10
b1101111010101101 2
#9658
0!
#9666
1!
1)
b1011111011101111 2
05
b1000 6
#9674
0!
#9683
1!
b10 %
0)
13
b0 6
#9691
0!
#9699
1!
b100 +
1/
#9708
0!
#9716
1!
0/
00
03
b1 6
#9724
0!
#9733
1!
b10 6
#9741
0!
#9749
1!
b11 6
#9758
0!
#9766
1!
b100 6
#9774
0!
#9783
1!
b110 6
#9791
0!
#9799
1!
#9808
0!
#9816
1!
#9824
0!
#9833
1!
#9841
0!
#9849
1!
#9858
0!
#9866
1!
#9874
0!
#9883
1!
#9891
0!
#9899
1!
#9908
0!
#9916
1!
#9924
0!
#9933
1!
#9941
0!
#9949
1!
#9958
0!
#9966
1!
#9974
0!
#9983
1!
#9991
0!
#9999
1!
15
b101 6
#10008
0!
#10016
1!
10
b1101111010101101 2
#10024
0!
#10033
1!
1)
b1011111011101111 2
05
b1000 6
#10041
0!
#10049
1!
b11 %
0)
13
b0 6
#10058
0!
#10066
1!
b110 +
1/
#10074
0!
#10083
1!
0/
00
03
b1 6
#10091
0!
#10099
1!
b10 6
#10108
0!
#10116
1!
b11 6
#10124
0!
#10133
1!
b100 6
#10141
0!
#10149
1!
b110 6
#10158
0!
#10166
1!
#10174
0!
#10183
1!
#10191
0!
#10199
1!
#10208
0!
#10216
1!
#10224
0!
#10233
1!
#10241
0!
#10249
1!
#10258
0!
#10266
1!
#10274
0!
#10283
1!
#10291
0!
#10299
1!
#10308
0!
#10316
1!
#10324
0!
#10333
1!
#10341
0!
#10349
1!
#10358
0!
#10366
1!
15
b101 6
#10374
0!
#10383
1!
10
b1101111010101101 2
#10391
0!
#10399
1!
1)
b1011111011101111 2
05
b1000 6
#10408
0!
#10416
1!
b100 %
0)
13
b0 6
#10424
0!
#10433
1!
b1000 +
1/
#10441
0!
#10449
1!
0/
00
03
b1 6
#10458
0!
#10466
1!
b10 6
#10474
0!
#10483
1!
b11 6
#10491
0!
#10499
1!
b100 6
#10508
0!
#10516
1!
b110 6
#10524
0!
#10533
1!
#10541
0!
#10549
1!
#10558
0!
#10566
1!
#10574
0!
#10583
1!
#10591
0!
#10599
1!
#10608
0!
#10616
1!
#10624
0!
#10633
1!
#10641
0!
#10649
1!
#10658
0!
#10666
1!
#10674
0!
#10683
1!
#10691
0!
#10699
1!
#10708
0!
#10716
1!
#10724
0!
#10733
1!
15
b101 6
#10741
0!
#10749
1!
10
b1101111010101101 2
#10758
0!
#10766
1!
1)
b1011111011101111 2
05
b1000 6
#10774
0!
#10783
1!
b101 %
0)
13
b0 6
#10791
0!
#10799
1!
b1010 +
1/
#10808
0!
#10816
1!
0/
00
03
b1 6
#10824
0!
#10833
1!
b10 6
#10841
0!
#10849
1!
b11 6
#10858
0!
#10866
1!
b100 6
#10874
0!
#10883
1!
b110 6
#10891
0!
#10899
1!
#10908
0!
#10916
1!
#10924
0!
#10933
1!
#10941
0!
#10949
1!
#10958
0!
#10966
1!
#10974
0!
#10983
1!
#10991
0!
#10999
1!
#11008
0!
#11016
1!
#11024
0!
#11033
1!
#11041
0!
#11049
1!
#11058
0!
#11066
1!
#11074
0!
#11083
1!
#11091
0!
#11099
1!
15
b101 6
#11108
0!
#11116
1!
10
b1101111010101101 2
#11124
0!
#11133
1!
1)
b1011111011101111 2
05
b1000 6
#11141
0!
#11149
1!
b110 %
0)
13
b0 6
#11158
0!
#11166
1!
b1100 +
1/
#11174
0!
#11183
1!
0/
00
03
b1 6
#11191
0!
#11199
1!
b10 6
#11208
0!
#11216
1!
b11 6
#11224
0!
#11233
1!
b100 6
#11241
0!
#11249
1!
b110 6
#11258
0!
#11266
1!
#11274
0!
#11283
1!
#11291
0!
#11299
1!
#11308
0!
#11316
1!
#11324
0!
#11333
1!
#11341
0!
#11349
1!
#11358
0!
#11366
1!
#11374
0!
#11383
1!
#11391
0!
#11399
1!
#11408
0!
#11416
1!
#11424
0!
#11433
1!
#11441
0!
#11449
1!
#11458
0!
#11466
1!
15
b101 6
#11474
0!
#11483
1!
10
b1101111010101101 2
#11491
0!
#11499
1!
1)
b1011111011101111 2
05
b1000 6
#11508
0!
#11516
1!
b111 %
0)
13
b0 6
#11524
0!
#11533
1!
b1110 +
1/
#11541
0!
#11549
1!
0/
00
03
b1 6
#11558
0!
#11566
1!
b10 6
#11574
0!
#11583
1!
b11 6
#11591
0!
#11599
1!
b100 6
#11608
0!
#11616
1!
b110 6
#11624
0!
#11633
1!
#11641
0!
#11649
1!
#11658
0!
#11666
1!
#11674
0!
#11683
1!
#11691
0!
#11699
1!
#11708
0!
#11716
1!
#11724
0!
#11733
1!
#11741
0!
#11749
1!
#11758
0!
#11766
1!
#11774
0!
#11783
1!
#11791
0!
#11799
1!
#11808
0!
#11816
1!
#11824
0!
#11833
1!
15
b101 6
#11841
0!
#11849
1!
10
b1101111010101101 2
#11858
0!
#11866
1!
1)
b1011111011101111 2
05
b1000 6
#11874
0!
#11883
1!
b1000 %
0)
13
b0 6
#11891
0!
#11899
1!
b10000 +
1/
#11908
0!
#11916
1!
0/
00
03
b1 6
#11924
0!
#11933
1!
b10 6
#11941
0!
#11949
1!
b11 6
#11958
0!
#11966
1!
b100 6
#11974
0!
#11983
1!
b110 6
#11991
0!
#11999
1!
#12008
0!
#12016
1!
#12024
0!
#12033
1!
#12041
0!
#12049
1!
#12058
0!
#12066
1!
#12074
0!
#12083
1!
#12091
0!
#12099
1!
#12108
0!
#12116
1!
#12124
0!
#12133
1!
#12141
0!
#12149
1!
#12158
0!
#12166
1!
