applets/selftest/out.vcd
$date today $end
$timescale 1 ns $end
$scope module ila $end
$var integer 1 ! ila_clock $end
$var integer 32 " test_signal $end
$var integer 8 # fsm_dbg $end
$var integer 1 $ bus__cyc $end
$var integer 1 % bus__stb $end
$var integer 22 & bus__adr $end
$var integer 1 ' bus__we $end
$var integer 32 ( bus__dat_r $end
$var integer 32 ) bus__dat_w $end
$var integer 1 * bus__ack $end
$var integer 3 + bus__cti $end
$var integer 64 , sr_out $end
$var integer 64 - sr_in $end
$var integer 8 . sr_rwds_in $end
$var integer 8 / sr_rwds_out $end
$var integer 1 0 cs $end
$var integer 1 1 clk $end
$var integer 32 2 phy_dq_i $end
$var integer 32 3 phy_dq_o $end
$var integer 32 4 phy_dq_oe $end
$var integer 4 5 phy_rwds_i $end
$var integer 4 6 phy_rwds_o $end
$var integer 4 7 phy_rwds_oe $end
$upscope $end
$enddefinitions $end
#0
$dumpvars
1!
b11011110101011011011111011101111 "
b0 #
0$
1%
b0 &
1'
b0 (
b0 )
0*
b0 +
b0 ,
b0 -
b11111111 .
b11111111 /
00
01
b0 2
b0 3
b0 4
b1111 5
b1111 6
b0 7
$end
#8
0!
#16
1!
#24
0!
#33
0%
1!
#41
0!
#50
1!
#58
0!
#66
1%
b11110100 &
0'
1!
#74
0!
#83
1!
#91
0!
#99
1!
#100
0%
#108
0!
#116
1!
1%
b11110101 &
#124
0!
#133
1!
0%
#141
0!
#149
1%
b111111 &
1!
#158
0!
#166
1!
#175
0!
#183
0%
1!
#191
0!
#199
1%
b1000000 &
#200
1!
#208
0!
#216
1!
#225
0!
#233
0%
1!
#241
0!
#249
1%
b1000001 &
#250
1!
#258
0!
#266
1!
#275
0!
#283
0%
1!
#291
0!
#299
1%
b1000010 &
#300
1!
#308
0!
#316
1!
#325
0!
#333
0%
1!
#341
0!
#350
1%
b1000011 &
1!
#358
0!
#366
1!
#375
0!
#383
0%
1!
#391
0!
#400
1%
b1000100 &
1!
#408
0!
#416
1!
#425
0!
#433
0%
1!
#441
0!
#450
1%
b1111111011110 &
1'
b10111000000 )
1!
#458
0!
#466
1!
#475
0!
#483
0%
1!
#491
0!
#500
1!
#508
0!
#516
1!
1%
b1000101 &
0'
b0 )
#525
0!
#533
1!
#541
0!
#549
1!
#550
0%
#558
0!
#566
1!
1%
b1000110 &
#574
0!
#583
1!
#591
0!
#599
1!
#600
0%
#608
0!
#616
1!
1%
b1000111 &
#624
0!
#633
1!
#641
0!
#649
1!
#650
0%
#658
0!
#666
1!
1%
b1111111011111 &
1'
b1111010100 )
#674
0!
#683
1!
#691
0!
#699
1!
#700
0%
#708
0!
#716
1!
1$
1%
b0 &
b11111111010101011010101011001101 )
#724
0!
#733
1!
b1 #
10
#741
0!
#749
1!
#750
b10 #
b10000000000000000000000000000000000000000000000000000000000000 ,
11
b100000000000000000000000000000 3
b1 4
#758
0!
#766
1!
b11 #
b0 ,
b0 3
#774
0!
#783
1!
b100 #
b0 4
#791
0!
#799
1!
#800
b101 #
#808
0!
#816
1!
b110 #
#824
0!
#833
1!
b111 #
b10000000000000 (
b100000000000000000000000000000 2
#841
0!
#849
1!
#850
b1000 #
b0 (
1*
b100000000000000000000000000000 -
b0 2
b1 4
b1 7
#858
0!
#866
1!
b1010 #
0$
0%
0*
b1111111101010101101010101100110100000000000000000000000000000000 ,
b10000000000000000000000000000000000000000000000000000000000000 -
b0 /
b11111111010101011010101011001101 3
b0 6
#874
0!
#883
1!
b1011 #
1%
b1001000 &
0'
b0 )
b0 ,
b0 -
b1111 /
01
b0 3
#891
0!
#899
1!
#900
b1100 #
b11111111 /
00
b0 4
b1111 6
b0 7
#908
0!
#916
1!
b1101 #
0%
b0 /
b0 6
#924
0!
#933
1!
b1110 #
b1111 /
#941
0!
#949
1!
#950
b1111 #
1$
1%
b0 &
b1111111101010101 (
b11111111 /
b11111111010101011010101011001101 2
b0 5
b1111 6
#958
0!
#966
1!
b10000 #
b10101010110011010000000000000000 (
b11111111010101011010101011001101 -
b11110000 .
b11110000 /
b0 2
#974
0!
#983
1!
b10001 #
b0 (
b1111111101010101101010101100110100000000000000000000000000000000 -
b0 .
b0 /
b1111 5
b0 6
#991
0!
#999
1!
#1000
b10010 #
b0 -
b1111 .
b1111 /
#1008
0!
#1016
1!
b10011 #
b11111111 .
b11111111 /
b1111 6
#1024
0!
#1033
1!
b10100 #
#1041
0!
#1049
1!
#1050
b10101 #
#1058
0!
#1066
1!
b10110 #
#1074
0!
#1083
1!
b0 #
#1091
0!
#1099
1!
b1 #
10
#1108
0!
#1116
1!
b10 #
b1010000000000000000000000000000000000000000000000000000000000000 ,
11
b10100000000000000000000000000000 3
b1 4
#1124
0!
#1133
1!
b11 #
b0 ,
b0 3
#1141
0!
#1149
1!
b100 #
b0 4
#1158
0!
#1166
1!
b101 #
#1174
0!
#1183
b110 #
1!
#1191
0!
#1199
b111 #
b1010000000000000 (
b10100000000000000000000000000000 2
1!
#1208
0!
#1216
b1000 #
b0 (
b10100000000000000000000000000000 -
b0 2
1!
#1224
0!
#1233
b1001 #
1*
b1010000000000000000000000000000000000000000000000000000000000000 -
1!
#1241
0!
#1249
b1011 #
0$
0%
0*
b0 -
01
1!
#1258
0!
#1266
b1100 #
00
1!
#1275
0!
#1283
b1101 #
b0 /
b0 6
1!
#1291
0!
#1299
b1110 #
1%
b1001001 &
b1111 /
#1300
1!
#1308
0!
#1316
b1111 #
b11111111 /
b1111 6
1!
#1325
0!
#1333
b10000 #
0%
1!
#1341
0!
#1349
b10001 #
1%
b1001010 &
#1350
1!
#1358
0!
#1366
b10010 #
0%
1!
#1375
0!
#1383
b10011 #
1%
b1010010 &
1!
#1391
0!
#1399
b10100 #
#1400
1!
#1408
0!
#1416
b10101 #
0%
1!
#1425
0!
#1433
b10110 #
1%
b1010011 &
1!
#1441
0!
#1449
b0 #
#1450
1!
#1458
0!
#1466
0%
1!
#1475
0!
#1483
1%
b1010100 &
1!
#1491
0!
#1500
1!
#1508
0!
#1516
0%
1!
#1525
0!
#1533
1%
b1010101 &
1!
#1541
0!
#1550
1!
#1558
0!
#1566
0%
1!
#1575
0!
#1583
1%
b1010110 &
1!
#1591
0!
#1600
1!
#1608
0!
#1616
0%
1!
#1625
0!
#1633
1$
1%
b0 &
1!
#1641
0!
#1649
b1 #
10
#1650
1!
#1658
0!
#1666
b10 #
b1010000000000000000000000000000000000000000000000000000000000000 ,
11
b10100000000000000000000000000000 3
b1 4
1!
#1675
0!
#1683
b11 #
b0 ,
b0 3
1!
#1691
0!
#1699
b100 #
b0 4
#1700
1!
#1708
0!
#1716
b101 #
1!
#1725
0!
#1733
b110 #
1!
#1741
0!
#1749
b111 #
b1010000000000000 (
b10100000000000000000000000000000 2
#1750
1!
#1758
0!
#1766
b1000 #
b0 (
b10100000000000000000000000000000 -
b0 2
1!
#1775
0!
#1783
b1001 #
1*
b1010000000000000000000000000000000000000000000000000000000000000 -
1!
#1791
0!
#1799
b1011 #
0$
0%
0*
b0 -
01
#1800
1!
#1808
0!
#1816
b1100 #
00
1!
#1825
0!
#1833
b1101 #
1%
b1010111 &
b0 /
b0 6
1!
#1841
0!
#1849
b1110 #
b1111 /
#1850
1!
#1858
0!
#1866
b1111 #
0%
b11111111 /
b1111 6
1!
#1875
0!
#1883
b10000 #
1%
b1011000 &
1!
#1891
0!
#1899
b10001 #
#1900
1!
#1908
0!
#1916
b10010 #
0%
1!
#1925
0!
#1933
b10011 #
1%
b1011001 &
1!
#1941
0!
#1949
b10100 #
#1950
1!
#1958
0!
#1966
b10101 #
0%
1!
#1975
0!
#1983
b10110 #
1%
b1011010 &
1!
#1991
0!
#1999
b0 #
0%
#2000
1!
#2008
0!
#2016
1%
b1100000 &
1!
#2025
0!
#2033
1!
#2041
0!
#2049
0%
#2050
1!
#2058
0!
#2066
1%
b1100001 &
1!
#2075
0!
#2083
1!
#2091
0!
#2099
0%
#2100
1!
#2108
0!
#2116
1%
b1100010 &
1!
#2125
0!
#2133
1!
#2141
0!
#2149
0%
#2150
1!
#2158
0!
#2166
1%
b1100011 &
1!
#2175
0!
#2183
1!
#2191
0!
#2199
0%
#2200
1!
#2208
0!
#2216
1%
b1111111011111 &
b1100 )
1!
#2225
0!
#2233
1!
#2241
0!
#2249
0%
#2250
1!
#2258
0!
#2266
1%
b1111111011110 &
b1000 )
1!
#2275
0!
#2283
1!
#2291
0!
#2299
0%
#2300
1!
#2308
0!
#2316
1%
b1100100 &
b0 )
1!
#2325
0!
#2333
1!
#2341
0!
#2349
0%
#2350
1!
#2358
0!
#2366
1%
b1100101 &
1!
#2375
0!
#2383
1!
#2391
0!
#2399
0%
#2400
1!
#2408
0!
#2416
1%
b1100110 &
1!
#2425
0!
#2433
0%
1!
#2441
0!
#2449
1%
b11110101 &
#2450
1!
#2458
0!
#2466
1!
#2475
0!
#2483
0%
1!
#2491
0!
#2499
1%
b11110110 &
#2500
1!
#2508
0!
#2516
1!
#2525
0!
#2533
0%
1!
#2541
0!
#2550
1%
b11110111 &
1!
#2558
0!
#2566
1!
#2575
0!
#2583
0%
1!
#2591
0!
#2600
1%
b11111000 &
1!
#2608
0!
#2616
1!
#2625
0!
#2633
0%
1!
#2641
0!
#2650
1%
b11111001 &
1!
#2658
0!
#2666
1!
#2675
0!
#2683
0%
1!
#2691
0!
#2700
1%
b11111010 &
1!
#2708
0!
#2716
1!
#2725
0!
#2733
0%
1!
#2741
0!
#2750
1%
b11111011 &
1!
#2758
0!
#2766
1!
#2775
0!
#2783
0%
1!
#2791
0!
#2800
1%
b11111100 &
1!
#2808
0!
#2816
1!
#2825
0!
#2833
0%
1!
#2841
0!
#2850
1%
b11111101 &
1!
#2858
0!
#2866
1!
#2875
0!
#2883
0%
1!
#2891
0!
#2900
1%
b11111110 &
1!
#2908
0!
#2916
1!
#2925
0!
#2933
0%
1!
#2941
0!
#2950
1!
#2958
0!
#2966
1%
b11111111 &
1!
#2975
0!
#2983
0%
1!
#2991
0!
#3000
1%
b11001110 &
1!
#3008
0!
#3016
1!
#3025
0!
#3033
0%
1!
#3041
0!
#3050
1%
b11001111 &
1!
#3058
0!
#3066
1!
#3075
0!
#3083
0%
1!
#3091
0!
#3100
1%
b11010000 &
1!
#3108
0!
#3116
1!
#3125
0!
#3133
0%
1!
#3141
0!
#3150
1%
b11010001 &
1!
#3158
0!
#3166
1!
#3175
0!
#3183
0%
1!
#3191
0!
#3200
1%
b11010010 &
1!
#3208
0!
#3216
1!
#3225
0!
#3233
0%
1!
#3241
0!
#3250
1%
b11 &
1'
1!
#3258
0!
#3266
1!
#3275
0!
#3283
1!
#3291
0!
#3300
1!
#3308
0!
#3316
1!
#3325
0!
#3333
1!
#3341
0!
#3350
0%
1!
#3358
0!
#3366
1!
#3375
0!
#3383
1%
b11010011 &
0'
1!
#3391
0!
#3400
1!
#3408
0!
#3416
0%
1!
#3425
0!
#3433
1%
b11010100 &
1!
#3441
0!
#3450
1!
#3458
0!
#3466
0%
1!
#3475
0!
#3483
1%
b11 &
1'
b1 )
1!
#3491
0!
#3500
1!
#3508
0!
#3516
1!
#3525
0!
#3533
1!
#3541
0!
#3550
1!
#3558
0!
#3566
1!
#3575
0!
#3583
0%
1!
#3591
0!
#3600
1!
#3608
0!
#3616
1%
b11010101 &
0'
b0 )
1!
#3625
0!
#3633
1!
#3641
0!
#3650
0%
1!
#3658
0!
#3666
1%
b11010110 &
1!
#3675
0!
#3683
1!
#3691
0!
#3700
0%
1!
#3708
0!
#3716
1%
b101 &
1'
1!
#3725
0!
#3733
1!
#3741
0!
#3750
1!
#3758
0!
#3766
1!
#3775
0!
#3783
1!
#3791
0!
#3800
1!
#3808
0!
#3816
0%
1!
#3825
0!
#3833
1!
#3841
0!
#3850
1%
b11010111 &
0'
1!
#3858
0!
#3866
1!
#3875
0!
#3883
0%
1!
#3891
0!
#3900
1%
b11011000 &
1!
#3908
0!
#3916
1!
#3925
0!
#3933
0%
1!
#3941
0!
#3950
1%
b11011001 &
1!
#3958
0!
#3966
1!
#3975
0!
#3983
0%
1!
#3991
0!
#4000
1%
b11011010 &
1!
#4008
0!
#4016
1!
#4025
0!
#4033
1!
0%
#4041
0!
#4050
1!
1%
b11011011 &
#4058
0!
#4066
1!
#4075
0!
#4083
1!
0%
#4091
0!
#4100
1!
1%
b11011100 &
#4108
0!
#4116
1!
0%
#4125
0!
#4133
1!
1%
b11111111 &
#4141
0!
#4150
1!
#4158
0!
#4166
1!
0%
#4175
0!
#4183
1!
1%
b100000000 &
#4191
0!
#4200
1!
#4208
0!
#4216
1!
0%
#4225
0!
#4233
1!
1%
b100000001 &
#4241
0!
#4250
1!
0%
#4258
0!
#4266
1!
1%
b10111111 &
#4274
0!
#4283
1!
#4291
0!
#4299
1!
#4300
0%
#4308
0!
#4316
1!
1%
b11000000 &
#4324
0!
#4333
1!
#4341
0!
#4349
1!
#4350
0%
#4358
0!
#4366
1!
1%
b11000001 &
#4374
0!
#4383
1!
#4391
0!
#4399
1!
#4400
0%
#4408
0!
#4416
1!
1%
b11000010 &
#4424
0!
#4433
1!
#4441
0!
#4449
1!
#4450
0%
#4458
0!
#4466
1!
1%
b11000011 &
#4474
0!
#4483
1!
#4491
0!
#4499
1!
#4500
0%
#4508
0!
#4516
1!
1%
b0 &
1'
#4524
0!
#4533
1!
#4541
0!
#4549
1!
#4558
0!
#4566
1!
#4574
0!
#4583
1!
#4591
0!
#4599
1!
#4608
0!
#4616
1!
0%
#4624
0!
#4633
1!
#4641
0!
#4649
1!
#4650
1%
b11000100 &
0'
#4658
0!
#4666
1!
#4674
0!
#4683
1!
0%
#4691
0!
#4699
1!
#4700
1%
b11000101 &
#4708
0!
#4716
1!
#4724
0!
#4733
1!
0%
#4741
0!
#4749
1!
#4750
1%
b0 &
1'
b1 )
#4758
0!
#4766
1!
#4774
0!
#4783
1!
#4791
0!
#4799
1!
#4808
0!
#4816
1!
#4824
0!
#4833
1!
#4841
0!
#4849
1!
#4850
0%
#4858
0!
#4866
1!
1%
b10 &
b0 )
#4874
0!
#4883
1!
#4891
0!
#4899
1!
#4908
0!
#4916
1!
#4924
0!
#4933
1!
#4941
0!
#4949
1!
#4958
0!
#4966
1!
0%
#4974
0!
#4983
1!
1%
b11000110 &
0'
#4991
0!
#4999
1!
#5008
0!
#5016
1!
0%
#5024
0!
#5033
1!
1%
b11000111 &
#5041
0!
#5049
1!
#5058
0!
#5066
1!
0%
#5074
0!
#5083
1!
1%
b11001000 &
#5091
0!
#5099
1!
#5108
0!
#5116
1!
0%
#5124
0!
#5133
1!
1%
b11001001 &
#5141
0!
#5149
1!
#5158
0!
#5166
1!
0%
#5174
0!
#5183
1!
1%
b11001010 &
#5191
0!
#5199
1!
#5208
0!
#5216
1!
0%
#5224
0!
#5233
1!
1%
b11001011 &
#5241
0!
#5249
1!
#5258
0!
#5266
1!
0%
#5274
0!
#5283
1!
1%
b11001100 &
#5291
0!
#5299
1!
#5300
0%
#5308
0!
#5316
1!
1%
b100000001 &
#5324
0!
#5333
1!
#5341
0!
#5349
1!
#5350
0%
#5358
0!
#5366
1!
1%
b100000010 &
#5374
0!
#5383
1!
#5391
0!
#5399
1!
#5400
0%
#5408
0!
#5416
1!
1%
b100000011 &
#5424
0!
#5433
1!
#5441
0!
#5449
1!
#5450
0%
#5458
0!
#5466
1!
#5474
0!
#5483
1!
1%
b100000100 &
#5491
0!
#5499
1!
#5500
0%
#5508
0!
#5516
1!
1%
b1000001010 &
#5524
0!
#5533
1!
#5541
0!
#5549
1!
#5550
0%
#5558
0!
#5566
1!
1%
b1000001011 &
#5574
0!
#5583
1!
#5591
0!
#5599
1!
#5600
0%
#5608
0!
#5616
1!
1%
b1000001100 &
#5624
0!
#5633
1!
#5641
0!
#5649
1!
#5650
0%
#5658
0!
#5666
1!
1%
b1000001101 &
#5674
0!
#5683
1!
#5691
0!
#5699
1!
#5700
0%
#5708
0!
#5716
1!
1%
b1000001110 &
#5724
0!
#5733
1!
#5741
0!
#5749
1!
#5750
0%
#5758
0!
#5766
1!
1%
b1111111011110 &
1'
#5774
0!
#5783
1!
#5791
0!
#5799
1!
#5800
0%
#5808
0!
#5816
1!
#5824
0!
#5833
1!
1%
b1000001111 &
0'
#5841
0!
#5849
1!
#5858
0!
#5866
1!
0%
#5874
0!
#5883
1!
1%
b1000010000 &
#5891
0!
#5899
1!
#5908
0!
#5916
1!
0%
#5924
0!
#5933
1!
1%
b1000010001 &
#5941
0!
#5949
1!
#5950
0%
#5958
0!
#5966
1!
1%
b111101000 &
#5974
0!
#5983
1!
#5991
0!
#5999
1!
#6000
0%
#6008
0!
#6016
1!
1%
b1111111011111 &
1'
b10000010000 )
#6024
0!
#6033
1!
#6041
0!
#6049
1!
#6050
0%
#6058
0!
#6066
1!
#6074
0!
#6083
1!
1%
b111101001 &
0'
b0 )
#6091
0!
#6099
1!
#6108
0!
#6116
1!
0%
#6124
0!
#6133
1!
1%
b111101010 &
#6141
0!
#6149
1!
#6158
0!
#6166
1!
0%
#6174
0!
#6183
1!
1%
b111101011 &
#6191
0!
#6199
1!
#6208
0!
#6216
1!
0%
#6224
0!
#6233
1!
1%
b111101100 &
#6241
0!
#6249
1!
#6258
0!
#6266
1!
0%
#6274
0!
#6283
1!
1%
b1111111011010 &
1'
#6291
0!
#6299
1!
#6308
0!
#6316
1!
0%
#6324
0!
#6333
1!
1%
b1111111011001 &
b10000000000000000001010000 )
#6341
0!
#6349
1!
#6358
0!
#6366
1!
0%
#6374
0!
#6383
1!
1%
b111101101 &
0'
b0 )
#6391
0!
#6399
1!
#6408
0!
#6416
1!
0%
#6424
0!
#6433
1!
1%
b111101110 &
#6441
0!
#6449
1!
#6458
0!
#6466
1!
0%
#6474
0!
#6483
1!
1%
b1111111011011 &
1'
b100001000100 )
#6491
0!
#6499
1!
#6508
0!
#6516
1!
0%
#6524
0!
#6533
1!
#6541
0!
#6549
1!
#6550
1%
b111101111 &
0'
b0 )
#6558
0!
#6566
1!
#6574
0!
#6583
1!
0%
#6591
0!
#6599
1!
#6600
1%
b111110000 &
#6608
0!
#6616
1!
#6624
0!
#6633
1!
0%
#6641
0!
#6649
1!
#6658
0!
#6666
1!
1%
b1101100011 &
#6674
0!
#6683
1!
#6691
0!
#6699
1!
#6700
0%
#6708
0!
#6716
1!
#6724
0!
#6733
1!
#6741
0!
#6749
1!
#6750
1%
b111110001 &
#6758
0!
#6766
1!
#6774
0!
#6783
1!
0%
#6791
0!
#6799
1!
#6800
1%
b111110010 &
#6808
0!
#6816
1!
0%
#6824
0!
#6833
1!
1%
b111110101 &
#6841
0!
#6849
1!
#6858
0!
#6866
1!
0%
#6874
0!
#6883
1!
1%
b111110110 &
#6891
0!
#6899
1!
#6908
0!
#6916
1!
0%
#6924
0!
#6933
1!
1%
b111110111 &
#6941
0!
#6949
1!
#6958
0!
#6966
1!
0%
#6974
0!
#6983
1!
1%
b111111000 &
#6991
0!
#6999
1!
#7000
0%
#7008
0!
#7016
1!
1%
#7024
0!
#7033
1!
#7041
0!
#7049
1!
#7050
0%
#7058
0!
#7066
1!
1%
b111111001 &
#7074
0!
#7083
1!
#7091
0!
#7099
1!
#7100
0%
#7108
0!
#7116
1!
1%
b111111010 &
#7124
0!
#7133
1!
#7141
0!
#7149
1!
#7150
0%
#7158
0!
#7166
1!
1%
b111111011 &
#7174
0!
#7183
1!
0%
#7191
0!
#7199
1!
#7200
1%
b1101100011 &
#7208
0!
#7216
1!
#7224
0!
#7233
1!
0%
#7241
0!
#7249
1!
#7258
0!
#7266
1!
1%
b111010010 &
#7274
0!
#7283
1!
#7291
0!
#7299
1!
#7300
0%
#7308
0!
#7316
1!
1%
b111010011 &
#7324
0!
#7333
1!
#7341
0!
#7349
1!
#7350
0%
#7358
0!
#7366
1!
1%
b111010100 &
#7374
0!
#7383
1!
#7391
0!
#7399
1!
#7400
0%
#7408
0!
#7416
1!
1%
b111010101 &
#7424
0!
#7433
1!
#7441
0!
#7449
1!
#7450
0%
#7458
0!
#7466
1!
1%
b111010110 &
#7474
0!
#7483
1!
0%
#7491
0!
#7499
1!
#7508
0!
#7516
1!
1%
b10000000010101 &
#7524
0!
#7533
1!
#7541
0!
#7549
1!
#7558
0!
#7566
1!
#7574
0!
#7583
1!
#7591
0!
#7599
1!
#7608
0!
#7616
1!
0%
#7624
0!
#7633
1!
#7641
0!
#7649
1!
#7658
0!
#7666
1!
1%
b111010100 &
#7674
0!
#7683
1!
#7691
0!
#7699
1!
#7700
0%
#7708
0!
#7716
1!
1%
b111010101 &
#7724
0!
#7733
1!
#7741
0!
#7749
1!
#7750
0%
#7758
0!
#7766
1!
1%
b111010110 &
#7774
0!
#7783
1!
0%
#7791
0!
#7799
1!
#7808
0!
#7816
1!
1%
b10000000010101 &
#7824
0!
#7833
1!
#7841
0!
#7849
1!
#7858
0!
#7866
1!
#7874
0!
#7883
1!
#7891
0!
#7899
1!
#7908
0!
#7916
1!
0%
#7924
0!
#7933
1!
#7941
0!
#7949
1!
#7958
0!
#7966
1!
1%
b111010100 &
#7974
0!
#7983
1!
#7991
0!
#7999
1!
#8000
0%
#8008
0!
#8016
1!
1%
b111010101 &
#8024
0!
#8033
1!
#8041
0!
#8049
1!
#8050
0%
#8058
0!
#8066
1!
1%
b111010110 &
#8074
0!
#8083
1!
0%
#8091
0!
#8099
1!
#8108
0!
#8116
1!
1%
b10000000010101 &
#8124
0!
#8133
1!
#8141
0!
#8149
1!
#8158
0!
#8166
1!
#8174
0!
#8183
1!
#8191
0!
#8199
1!
#8208
0!
#8216
1!
0%
#8224
0!
#8233
1!
#8241
0!
#8249
1!
#8258
0!
#8266
1!
1%
b111010100 &
#8274
0!
#8283
1!
#8291
0!
#8299
1!
#8300
0%
#8308
0!
#8316
1!
1%
b111010101 &
#8324
0!
#8333
1!
#8341
0!
#8349
1!
#8350
0%
#8358
0!
#8366
1!
1%
b111010110 &
#8374
0!
#8383
1!
0%
#8391
0!
#8399
1!
#8408
0!
#8416
1!
1%
b10000000010101 &
#8424
0!
#8433
1!
#8441
0!
#8449
1!
#8458
0!
#8466
1!
#8474
0!
#8483
1!
#8491
0!
#8499
1!
#8508
0!
#8516
1!
0%
#8524
0!
#8533
1!
#8541
0!
#8549
1!
#8558
0!
#8566
1!
1%
b111010100 &
#8574
0!
#8583
1!
#8591
0!
#8599
1!
0%
#8608
0!
#8616
1!
1%
b111010101 &
#8624
0!
#8633
1!
#8641
0!
#8649
1!
0%
#8658
0!
#8666
1!
1%
b111010110 &
#8674
0!
#8683
1!
0%
#8691
0!
#8699
1!
#8708
0!
#8716
1!
1%
b10000000010101 &
#8724
0!
#8733
1!
#8741
0!
#8749
1!
#8758
0!
#8766
1!
#8774
0!
#8783
1!
#8791
0!
#8799
1!
#8808
0!
#8816
1!
0%
#8824
0!
#8833
1!
#8841
0!
#8849
1!
#8858
0!
#8866
1!
1%
b111010100 &
#8874
0!
#8883
1!
#8891
0!
#8899
1!
0%
#8908
0!
#8916
1!
1%
b111010101 &
#8924
0!
#8933
1!
#8941
0!
#8949
1!
0%
#8958
0!
#8966
1!
1%
b111010110 &
#8974
0!
#8983
1!
0%
#8991
0!
#8999
1!
#9008
0!
#9016
1!
1%
b10000000010101 &
#9024
0!
#9033
1!
#9041
0!
#9049
1!
#9058
0!
#9066
1!
#9074
0!
#9083
1!
#9091
0!
#9099
1!
#9108
0!
#9116
1!
0%
#9124
0!
#9133
1!
#9141
0!
#9149
1!
#9158
0!
#9166
1!
1%
b111010100 &
#9174
0!
#9183
1!
#9191
0!
#9199
1!
0%
#9208
0!
#9216
1!
1%
b111010101 &
#9224
0!
#9233
1!
#9241
0!
#9249
1!
0%
#9258
0!
#9266
1!
1%
b111010110 &
#9274
0!
#9283
1!
0%
#9291
0!
#9299
1!
#9308
0!
#9316
1!
1%
b10000000010101 &
#9324
0!
#9333
1!
#9341
0!
#9349
1!
#9358
0!
#9366
1!
#9374
0!
#9383
1!
#9391
0!
#9399
1!
#9408
0!
#9416
1!
0%
#9424
0!
#9433
1!
#9441
0!
#9449
1!
#9458
0!
#9466
1!
1%
b111010100 &
#9474
0!
#9483
1!
#9491
0!
#9499
1!
0%
#9508
0!
#9516
1!
1%
b111010101 &
#9524
0!
#9533
1!
#9541
0!
#9549
1!
0%
#9558
0!
#9566
1!
1%
b111010110 &
#9574
0!
#9583
1!
0%
#9591
0!
#9599
1!
#9608
0!
#9616
1!
1%
b10000000010101 &
#9624
0!
#9633
1!
#9641
0!
#9649
1!
#9658
0!
#9666
1!
#9674
0!
#9683
1!
#9691
0!
#9699
1!
#9708
0!
#9716
1!
0%
#9724
0!
#9733
1!
#9741
0!
#9749
1!
#9758
0!
#9766
1!
1%
b111010100 &
#9774
0!
#9783
1!
#9791
0!
#9799
1!
0%
#9808
0!
#9816
1!
1%
b111010101 &
#9824
0!
#9833
1!
#9841
0!
#9849
1!
0%
#9858
0!
#9866
1!
1%
b111010110 &
#9874
0!
#9883
1!
0%
#9891
0!
#9899
1!
#9908
0!
#9916
1!
1%
b10000000010101 &
#9924
0!
#9933
1!
#9941
0!
#9949
1!
#9958
0!
#9966
1!
#9974
0!
#9983
1!
#9991
0!
#9999
1!
#10008
0!
#10016
1!
0%
#10024
0!
#10033
1!
#10041
0!
#10049
1!
#10058
0!
#10066
1!
1%
b111010100 &
#10074
0!
#10083
1!
#10091
0!
#10099
1!
0%
#10108
0!
#10116
1!
1%
b111010101 &
#10124
0!
#10133
1!
#10141
0!
#10149
1!
0%
#10158
0!
#10166
1!
1%
b111010110 &
#10174
0!
#10183
1!
0%
#10191
0!
#10199
1!
#10208
0!
#10216
1!
1%
b10000000010101 &
#10224
0!
#10233
1!
#10241
0!
#10249
1!
#10258
0!
#10266
1!
#10274
0!
#10283
1!
#10291
0!
#10299
1!
#10308
0!
#10316
1!
0%
#10324
0!
#10333
1!
#10341
0!
#10349
1!
#10358
0!
#10366
1!
1%
b111010100 &
#10374
0!
#10383
1!
#10391
0!
#10399
1!
0%
#10408
0!
#10416
1!
1%
b111010101 &
#10424
0!
#10433
1!
#10441
0!
#10449
1!
0%
#10458
0!
#10466
1!
1%
b111010110 &
#10474
0!
#10483
1!
0%
#10491
0!
#10499
1!
#10508
0!
#10516
1!
1%
b10000000010101 &
#10524
0!
#10533
1!
#10541
0!
#10549
1!
#10558
0!
#10566
1!
#10574
0!
#10583
1!
#10591
0!
#10599
1!
#10608
0!
#10616
1!
0%
#10624
0!
#10633
1!
#10641
0!
#10649
1!
#10658
0!
#10666
1!
1%
b111010100 &
#10674
0!
#10683
1!
#10691
0!
#10699
1!
0%
#10708
0!
#10716
1!
1%
b111010101 &
#10724
0!
#10733
1!
#10741
0!
#10749
1!
0%
#10758
0!
#10766
1!
1%
b111010110 &
#10774
0!
#10783
1!
0%
#10791
0!
#10799
1!
#10808
0!
#10816
1!
1%
b10000000010101 &
#10824
0!
#10833
1!
#10841
0!
#10849
1!
#10858
0!
#10866
1!
#10874
0!
#10883
1!
#10891
0!
#10899
1!
#10908
0!
#10916
1!
0%
#10924
0!
#10933
1!
#10941
0!
#10949
1!
#10958
0!
#10966
1!
1%
b111010100 &
#10974
0!
#10983
1!
#10991
0!
#10999
1!
0%
#11008
0!
#11016
1!
1%
b111010101 &
#11024
0!
#11033
1!
#11041
0!
#11049
1!
0%
#11058
0!
#11066
1!
1%
b111010110 &
#11074
0!
#11083
1!
0%
#11091
0!
#11099
1!
#11108
0!
#11116
1!
1%
b10000000010101 &
#11124
0!
#11133
1!
#11141
0!
#11149
1!
#11158
0!
#11166
1!
#11174
0!
#11183
1!
#11191
0!
#11199
1!
#11208
0!
#11216
1!
0%
#11224
0!
#11233
1!
#11241
0!
#11249
1!
#11258
0!
#11266
1!
1%
b111010100 &
#11274
0!
#11283
1!
#11291
0!
#11299
1!
0%
#11308
0!
#11316
1!
1%
b111010101 &
#11324
0!
#11333
1!
#11341
0!
#11349
1!
0%
#11358
0!
#11366
1!
1%
b111010110 &
#11374
0!
#11383
1!
0%
#11391
0!
#11399
1!
#11408
0!
#11416
1!
1%
b10000000010101 &
#11424
0!
#11433
1!
#11441
0!
#11449
1!
#11458
0!
#11466
1!
#11474
0!
#11483
1!
#11491
0!
#11499
1!
#11508
0!
#11516
1!
0%
#11524
0!
#11533
1!
#11541
0!
#11549
1!
#11558
0!
#11566
1!
1%
b111010100 &
#11574
0!
#11583
1!
#11591
0!
#11599
1!
0%
#11608
0!
#11616
1!
1%
b111010101 &
#11624
0!
#11633
1!
#11641
0!
#11649
1!
0%
#11658
0!
#11666
1!
1%
b111010110 &
#11674
0!
#11683
1!
0%
#11691
0!
#11699
1!
#11708
0!
#11716
1!
1%
b10000000010101 &
#11724
0!
#11733
1!
#11741
0!
#11749
1!
#11758
0!
#11766
1!
#11774
0!
#11783
1!
#11791
0!
#11799
1!
#11808
0!
#11816
1!
0%
#11824
0!
#11833
1!
#11841
0!
#11849
1!
#11858
0!
#11866
1!
1%
b111010100 &
#11874
0!
#11883
1!
#11891
0!
#11899
1!
0%
#11908
0!
#11916
1!
1%
b111010101 &
#11924
0!
#11933
1!
#11941
0!
#11949
1!
0%
#11958
0!
#11966
1!
1%
b111010110 &
#11974
0!
#11983
1!
0%
#11991
0!
#11999
1!
#12008
0!
#12016
1!
1%
b10000000010101 &
#12024
0!
#12033
1!
#12041
0!
#12049
1!
#12058
0!
#12066
1!
#12074
0!
#12083
1!
#12091
0!
#12099
1!
#12108
0!
#12116
1!
0%
#12124
0!
#12133
1!
#12141
0!
#12149
1!
#12158
0!
#12166
1!
1%
b111010100 &
#12174
0!
#12183
1!
#12191
0!
#12199
1!
0%
#12208
0!
#12216
1!
1%
b111010101 &
#12224
0!
#12233
1!
#12241
0!
